(13:08:14) INFO:    [Connection]:       Connectivity: check-online
(13:08:14) INFO:    [Connection]:       Pinging external endpoints
(13:08:14) INFO:    [Legendary]:        Running command: /opt/Heroic/resources/app.asar.unpacked/build/bin/linux/legendary --version
(13:08:14) INFO:    [Legendary]:        Legendary location: /opt/Heroic/resources/app.asar.unpacked/build/bin/linux/legendary
(13:08:14) INFO:    [Gog]:              GOGDL location: /opt/Heroic/resources/app.asar.unpacked/build/bin/linux/gogdl
(13:08:14) WARNING: [Backend]:          Protocol already registered.
(13:08:15) INFO:    [Gog]:              Running command: /opt/Heroic/resources/app.asar.unpacked/build/bin/linux/gogdl --version
(13:08:15) INFO:    [Connection]:       Connectivity: online
(13:08:15) INFO:    [Backend]:          AreWeAntiCheatYet data downloaded
(13:08:15) INFO:    [Backend]:          

Heroic Version: 2.5.2 Yamato
Legendary Version:  0.20.31 Dark Energy (hotfix #5)
GOGdl Version: 0.5
OS: Arch KERNEL: 6.1.8-arch1-1 ARCH: x64
CPU: Intel Core™ i9-10900K @3.7 GOVERNOR: powersave
RAM: Total: 62.67 GiB Available: 49.19 GiB
GRAPHICS: GPU0: NVIDIA GeForce RTX 3090 VRAM: 24576MB DRIVER: 525.85.05 
PROTOCOL: x11

(13:08:15) INFO:    [Backend]:          Checking for new Heroic Updates
(13:08:15) INFO:    [Backend]:          Checking for current version changelog
(13:08:15) INFO:    [Frontend]:         Refreshing Library
(13:08:15) INFO:    [Legendary]:        Refreshing library...
(13:08:15) INFO:    [Legendary]:        Refreshing Epic Games...
(13:08:15) INFO:    [Legendary]:        Game list updated, got 96 games & DLCs
(13:08:15) INFO:    [Backend]:          Frontend Ready
(13:08:16) INFO:    [Legendary]:        Running command: /opt/Heroic/resources/app.asar.unpacked/build/bin/linux/legendary list --third-party
(13:08:17) INFO:    [Winetricks]:       Downloading Winetricks
(13:08:20) INFO:    [Backend]:          Starting the Download Queue
(13:08:54) INFO:    [Legendary]:        Checking if EOS Overlay is enabled: /opt/Heroic/resources/app.asar.unpacked/build/bin/linux/legendary eos-overlay info --prefix "/home/mariah/Games/Heroic/Prefixes/Batman Arkham Knight"
(13:08:54) INFO:    [Backend]:          Using cached HowLongToBeat data for Batman Arkham Knight 
(13:08:54) DEBUG:   [Legendary]:        Using cached install info
(13:08:54) DEBUG:   [Legendary]:        Using cached install info
(13:08:54) INFO:    [Legendary]:        Abort command "/opt/Heroic/resources/app.asar.unpacked/build/bin/linux/legendary eos-overlay info --prefix "/home/mariah/Games/Heroic/Prefixes/Batman Arkham Knight""
(13:09:07) INFO:    [Backend]:          Launching Batman™ Arkham Knight (Cowbird)
(13:09:07) INFO:    [Backend]:          Preventing display from sleep
(13:09:08) DEBUG:   [Legendary]:        Using cached install info
(13:09:08) DEBUG:   [Legendary]:        Using cached install info
(13:09:08) DEBUG:   [Backend]:          Running Wine command: wineboot --init
(13:09:09) INFO:    [Legendary]:        Running command: /opt/Heroic/resources/app.asar.unpacked/build/bin/linux/legendary launch Cowbird --json --offline
(13:09:09) INFO:    [Legendary]:        Launching Batman™ Arkham Knight: LD_PRELOAD= WINEPREFIX="/home/mariah/Games/Heroic/Prefixes/Batman Arkham Knight" ORIG_LD_LIBRARY_PATH= LD_LIBRARY_PATH="/home/mariah/.local/share/lutris/runners/wine/Proton Experimental/lib64:/home/mariah/.local/share/lutris/runners/wine/Proton Experimental/lib" GST_PLUGIN_SYSTEM_PATH_1_0="/home/mariah/.local/share/lutris/runners/wine/Proton Experimental/lib64/gstreamer-1.0:/home/mariah/.local/share/lutris/runners/wine/Proton Experimental/lib/gstreamer-1.0" WINEDLLPATH="/home/mariah/.local/share/lutris/runners/wine/Proton Experimental/lib64/wine:/home/mariah/.local/share/lutris/runners/wine/Proton Experimental/lib/wine" /opt/Heroic/resources/app.asar.unpacked/build/bin/linux/legendary launch Cowbird --language en --wine "/home/mariah/.local/share/lutris/runners/wine/Proton Experimental/bin/wine"
(13:10:07) INFO:    [Backend]:          Stopping Display Power Saver Blocker
(13:10:07) INFO:    [Frontend]:         Refreshing Library
(13:10:07) INFO:    [Legendary]:        Refreshing library...
(13:10:07) INFO:    [Legendary]:        Game list updated, got 96 games & DLCs
(13:10:07) DEBUG:   [Legendary]:        Using cached install info
(13:10:07) DEBUG:   [Legendary]:        Using cached install info
(13:10:07) DEBUG:   [Legendary]:        Using cached install info
