{
  "Goldeneye": {
    "autoInstallDxvk": false,
    "autoInstallVkd3d": false,
    "preferSystemLibs": false,
    "nvidiaPrime": false,
    "enviromentOptions": [],
    "wrapperOptions": [],
    "showFps": false,
    "useGameMode": false,
    "language": "",
    "wineVersion": {
      "bin": "/home/mariah/.steam/debian-installation/steamapps/common/Proton - Experimental/proton",
      "name": "Proton - Proton - Experimental",
      "type": "proton"
    },
    "winePrefix": "/home/mariah/Games/Heroic/Prefixes/LegoBatman"
  },
  "version": "v0",
  "explicit": true
}