00:00:00.407116 VirtualBox GUI VM Selector Window 6.1.36 r152435 linux.amd64 (Jul 21 2022 10:08:57) release log
00:00:00.407117 Log opened 2022-08-15T01:54:33.344304000Z
00:00:00.407117 Build Type: release
00:00:00.407119 OS Product: Linux
00:00:00.407119 OS Release: 5.19.1-arch2-1
00:00:00.407119 OS Version: #1 SMP PREEMPT_DYNAMIC Thu, 11 Aug 2022 16:06:13 +0000
00:00:00.407128 DMI Product Name: Z590 UD AC
00:00:00.407131 DMI Product Version: Default string
00:00:00.407133 Firmware type: UEFI
00:00:00.407277 Secure Boot: Disabled
00:00:00.407295 Host RAM: 64178MB (62.6GB) total, 62371MB (60.9GB) available
00:00:00.407297 Executable: /usr/lib/virtualbox/VirtualBox
00:00:00.407297 Process ID: 2266
00:00:00.407298 Package type: LINUX_64BITS_GENERIC (OSE)
00:00:00.407312 Qt version: 5.15.5
00:00:00.414519 GUI: UIMediumEnumerator: Medium-enumeration started...
00:00:00.696010 GUI: UIDesktopWidgetWatchdog::sltHandleHostScreenAvailableGeometryCalculated: Screen 0 work area is actually resized to: 0x32 x 3840x2128
00:00:00.715358 GUI: UIMediumEnumerator: Medium-enumeration finished!
00:00:33.708150 ERROR [COM]: aRC=NS_ERROR_UNEXPECTED (0x8000ffff) aIID={c0447716-ff5a-4795-b57a-ecd5fffa18a4} aComponent={SessionWrap} aText={The session is not locked (session state: Unlocked)}, preserve=false aResultDetail=0
