00:00:00.418866 VirtualBox GUI VM Selector Window 6.1.32_Ubuntu r149290 linux.amd64 (Mar  4 2022 08:26:13) release log
00:00:00.418867 Log opened 2022-05-29T20:17:17.267384000Z
00:00:00.418867 Build Type: release
00:00:00.418870 OS Product: Linux
00:00:00.418871 OS Release: 5.15.0-33-generic
00:00:00.418871 OS Version: #34-Ubuntu SMP Wed May 18 13:34:26 UTC 2022
00:00:00.418884 DMI Product Name: Z590 UD AC
00:00:00.418888 DMI Product Version: Default string
00:00:00.418892 Firmware type: UEFI
00:00:00.419037 Secure Boot: Disabled
00:00:00.419067 Host RAM: 64180MB (62.6GB) total, 62274MB (60.8GB) available
00:00:00.419071 Executable: /usr/lib/virtualbox/VirtualBox
00:00:00.419072 Process ID: 4067
00:00:00.419072 Package type: LINUX_64BITS_GENERIC (OSE)
00:00:00.419087 Qt version: 5.15.3
00:00:00.436684 GUI: UIMediumEnumerator: Medium-enumeration started...
00:00:00.754952 GUI: UIDesktopWidgetWatchdog::sltHandleHostScreenAvailableGeometryCalculated: Screen 0 work area is actually resized to: 0x0 x 3840x2108
00:00:00.784268 GUI: UIMediumEnumerator: Medium-enumeration finished!
00:01:45.428144 GUI: UIMediumEnumerator: Medium with key={{a25d19b5-5eef-4f71-8981-e93b4060929a}} created
00:01:45.542928 GUI: UIMediumEnumerator: Medium-enumeration finished!
00:02:24.509138 GUI: UIMediumEnumerator: Medium-enumeration finished!
