00:00:00.243324 VirtualBox GUI VM Selector Window 6.1.34_Ubuntu r150636 linux.amd64 (May 13 2022 07:34:48) release log
00:00:00.243325 Log opened 2022-07-06T05:07:32.818122000Z
00:00:00.243325 Build Type: release
00:00:00.243328 OS Product: Linux
00:00:00.243328 OS Release: 5.15.0-40-generic
00:00:00.243329 OS Version: #43-Ubuntu SMP Wed Jun 15 12:54:21 UTC 2022
00:00:00.243343 DMI Product Name: Z590 UD AC
00:00:00.243347 DMI Product Version: Default string
00:00:00.243352 Firmware type: UEFI
00:00:00.243486 Secure Boot: Disabled
00:00:00.243508 Host RAM: 64180MB (62.6GB) total, 61830MB (60.3GB) available
00:00:00.243511 Executable: /usr/lib/virtualbox/VirtualBox
00:00:00.243512 Process ID: 140002
00:00:00.243512 Package type: LINUX_64BITS_GENERIC (OSE)
00:00:00.243528 Qt version: 5.15.3
00:00:00.249583 GUI: UIMediumEnumerator: Medium-enumeration started...
00:00:00.535833 GUI: UIDesktopWidgetWatchdog::sltHandleHostScreenAvailableGeometryCalculated: Screen 0 work area is actually resized to: 0x44 x 3840x2116
00:00:00.559851 GUI: UIMediumEnumerator: Medium-enumeration finished!
00:02:54.934824 GUI: UIMediumEnumerator: Medium with key={{06ef51a1-3972-4653-aa33-661164f2fbc4}} created
00:02:55.045068 GUI: UIMediumEnumerator: Medium-enumeration finished!
00:03:32.291563 GUI: UIMediumEnumerator: Medium with key={{e918129f-9010-4712-ae97-d053da05f64a}} created
00:03:32.319169 GUI: UIMediumEnumerator: Medium-enumeration finished!
00:03:53.413176 GUI: UIMediumEnumerator: Medium-enumeration finished!
00:07:01.656042 GUI: UIMediumEnumerator: Medium-enumeration finished!
00:07:02.392064 GUI: UIMediumEnumerator: Medium-enumeration finished!
00:07:15.709946 GUI: UIMediumEnumerator: Medium-enumeration finished!
00:07:49.664994 GUI: UIMediumEnumerator: Medium-enumeration finished!
00:07:57.860504 GUI: UIMediumEnumerator: Medium-enumeration finished!
00:12:50.895403 GUI: UIMediumEnumerator: Medium-enumeration finished!
00:12:59.239662 GUI: UIMediumEnumerator: Medium-enumeration finished!
