00:00:00.234407 VirtualBox GUI VM Selector Window 6.1.36 r152435 linux.amd64 (Jul 21 2022 10:08:57) release log
00:00:00.234408 Log opened 2022-08-15T01:44:53.422239000Z
00:00:00.234408 Build Type: release
00:00:00.234409 OS Product: Linux
00:00:00.234409 OS Release: 5.19.1-arch2-1
00:00:00.234410 OS Version: #1 SMP PREEMPT_DYNAMIC Thu, 11 Aug 2022 16:06:13 +0000
00:00:00.234419 DMI Product Name: Z590 UD AC
00:00:00.234422 DMI Product Version: Default string
00:00:00.234424 Firmware type: UEFI
00:00:00.234547 Secure Boot: Disabled
00:00:00.234565 Host RAM: 64178MB (62.6GB) total, 60640MB (59.2GB) available
00:00:00.234567 Executable: /usr/lib/virtualbox/VirtualBox
00:00:00.234567 Process ID: 133554
00:00:00.234568 Package type: LINUX_64BITS_GENERIC (OSE)
00:00:00.234581 Qt version: 5.15.5
00:00:00.237808 GUI: UIMediumEnumerator: Medium-enumeration started...
00:00:00.505496 GUI: UIDesktopWidgetWatchdog::sltHandleHostScreenAvailableGeometryCalculated: Screen 0 work area is actually resized to: 0x32 x 3840x2128
00:00:00.511590 GUI: UIMediumEnumerator: Medium-enumeration finished!
00:02:19.434188 GUI: UIMediumEnumerator: Medium with key={{c124d82a-6063-4394-9421-90df49d04b1b}} created
00:02:19.558586 GUI: UIMediumEnumerator: Medium-enumeration finished!
00:04:40.569058 GUI: UIMediumEnumerator: Medium with key={{e30937ba-1017-45e5-bf5f-1b67852d3eff}} created
00:04:40.596260 GUI: UIMediumEnumerator: Medium-enumeration finished!
00:06:05.377548 ERROR [COM]: aRC=NS_ERROR_UNEXPECTED (0x8000ffff) aIID={c0447716-ff5a-4795-b57a-ecd5fffa18a4} aComponent={SessionWrap} aText={The session is not locked (session state: Unlocked)}, preserve=false aResultDetail=0
