00:00:00.279570 VirtualBox GUI VM Selector Window 6.1.32_Ubuntu r149290 linux.amd64 (Mar  4 2022 08:26:13) release log
00:00:00.279571 Log opened 2022-06-01T14:45:50.440495000Z
00:00:00.279571 Build Type: release
00:00:00.279573 OS Product: Linux
00:00:00.279574 OS Release: 5.15.0-33-generic
00:00:00.279574 OS Version: #34-Ubuntu SMP Wed May 18 13:34:26 UTC 2022
00:00:00.279587 DMI Product Name: Z590 UD AC
00:00:00.279590 DMI Product Version: Default string
00:00:00.279595 Firmware type: UEFI
00:00:00.279759 Secure Boot: Disabled
00:00:00.279782 Host RAM: 64180MB (62.6GB) total, 59640MB (58.2GB) available
00:00:00.279785 Executable: /usr/lib/virtualbox/VirtualBox
00:00:00.279785 Process ID: 69260
00:00:00.279786 Package type: LINUX_64BITS_GENERIC (OSE)
00:00:00.279799 Qt version: 5.15.3
00:00:00.293300 GUI: UIMediumEnumerator: Medium-enumeration started...
00:00:00.580651 GUI: UIDesktopWidgetWatchdog::sltHandleHostScreenAvailableGeometryCalculated: Screen 0 work area is actually resized to: 0x0 x 3840x2108
00:00:00.623090 GUI: UIMediumEnumerator: Medium-enumeration finished!
00:21:29.973282 GUI: UIMediumEnumerator: Medium with key={{4457f390-0d74-45fd-88f8-84afff5986be}} created
00:21:30.141205 GUI: UIMediumEnumerator: Medium-enumeration finished!
00:21:48.458228 GUI: UIMediumEnumerator: Medium-enumeration finished!
00:23:51.615214 GUI: UIMediumEnumerator: Medium-enumeration finished!
00:23:51.713757 GUI: UIMediumEnumerator: Medium-enumeration finished!
00:23:51.753380 GUI: UIMediumEnumerator: Medium-enumeration finished!
00:29:58.490954 GUI: UIMediumEnumerator: Medium-enumeration finished!
00:32:30.284413 GUI: UIMediumEnumerator: Medium-enumeration finished!
00:32:30.317617 GUI: UIMediumEnumerator: Medium-enumeration finished!
00:35:58.149130 GUI: UIMediumEnumerator: Medium-enumeration finished!
00:39:41.593203 GUI: UIMediumEnumerator: Medium-enumeration finished!
00:44:29.095222 GUI: UIMediumEnumerator: Medium-enumeration finished!
00:44:47.185020 GUI: UIMediumEnumerator: Medium-enumeration finished!
00:51:58.106095 GUI: UIMediumEnumerator: Medium-enumeration finished!
00:51:58.129459 GUI: UIMediumEnumerator: Medium-enumeration finished!
00:57:16.813120 GUI: UIMediumEnumerator: Medium-enumeration finished!
