00:00:00.242207 VirtualBox GUI VM Selector Window 6.1.36 r152435 linux.amd64 (Jul 21 2022 10:08:57) release log
00:00:00.242209 Log opened 2022-08-15T01:03:00.387218000Z
00:00:00.242209 Build Type: release
00:00:00.242211 OS Product: Linux
00:00:00.242212 OS Release: 5.19.1-arch2-1
00:00:00.242212 OS Version: #1 SMP PREEMPT_DYNAMIC Thu, 11 Aug 2022 16:06:13 +0000
00:00:00.242226 DMI Product Name: Z590 UD AC
00:00:00.242231 DMI Product Version: Default string
00:00:00.242234 Firmware type: UEFI
00:00:00.242379 Secure Boot: Disabled
00:00:00.242404 Host RAM: 64178MB (62.6GB) total, 59070MB (57.6GB) available
00:00:00.242406 Executable: /usr/lib/virtualbox/VirtualBox
00:00:00.242407 Process ID: 96185
00:00:00.242407 Package type: LINUX_64BITS_GENERIC (OSE)
00:00:00.242426 Qt version: 5.15.5
00:00:00.247046 GUI: UIMediumEnumerator: Medium-enumeration started...
00:00:00.527149 GUI: UIDesktopWidgetWatchdog::sltHandleHostScreenAvailableGeometryCalculated: Screen 0 work area is actually resized to: 0x32 x 3840x2128
00:00:00.542800 GUI: UIMediumEnumerator: Medium-enumeration finished!
