00:00:00.248776 VirtualBox GUI VM Selector Window 6.1.32_Ubuntu r149290 linux.amd64 (Mar  4 2022 08:26:13) release log
00:00:00.248777 Log opened 2022-05-27T07:15:26.260331000Z
00:00:00.248778 Build Type: release
00:00:00.248781 OS Product: Linux
00:00:00.248781 OS Release: 5.15.0-33-generic
00:00:00.248781 OS Version: #34-Ubuntu SMP Wed May 18 13:34:26 UTC 2022
00:00:00.248797 DMI Product Name: Z590 UD AC
00:00:00.248800 DMI Product Version: Default string
00:00:00.248805 Firmware type: UEFI
00:00:00.248960 Secure Boot: Disabled
00:00:00.248982 Host RAM: 64180MB (62.6GB) total, 59568MB (58.1GB) available
00:00:00.248985 Executable: /usr/lib/virtualbox/VirtualBox
00:00:00.248985 Process ID: 65442
00:00:00.248985 Package type: LINUX_64BITS_GENERIC (OSE)
00:00:00.249001 Qt version: 5.15.3
00:00:00.253278 GUI: UIMediumEnumerator: Medium-enumeration started...
00:00:00.253293 GUI: UIMediumEnumerator: Medium-enumeration finished!
00:00:00.528162 GUI: UIDesktopWidgetWatchdog::sltHandleHostScreenAvailableGeometryCalculated: Screen 0 work area is actually resized to: 0x0 x 3840x2108
00:05:01.496855 GUI: UIMediumEnumerator: Medium with key={{0d46f8c3-b383-4890-9813-c7321536b800}} created
00:05:01.513333 GUI: UIMediumEnumerator: Medium-enumeration finished!
00:05:13.215798 GUI: UIMediumEnumerator: Medium-enumeration finished!
00:07:43.647496 GUI: UIMediumEnumerator: Medium-enumeration finished!
00:09:41.506321 GUI: UIMediumEnumerator: Medium-enumeration finished!
00:09:42.146305 GUI: UIMediumEnumerator: Medium-enumeration finished!
