00:00:00.238087 VirtualBox GUI VM Selector Window 6.1.38 r153438 linux.amd64 (Sep  1 2022 19:47:47) release log
00:00:00.238088 Log opened 2022-09-22T18:17:36.997130000Z
00:00:00.238089 Build Type: release
00:00:00.238091 OS Product: Linux
00:00:00.238091 OS Release: 5.19.9-arch1-1
00:00:00.238092 OS Version: #1 SMP PREEMPT_DYNAMIC Thu, 15 Sep 2022 16:08:26 +0000
00:00:00.238103 DMI Product Name: Z590 UD AC
00:00:00.238107 DMI Product Version: Default string
00:00:00.238111 Firmware type: UEFI
00:00:00.238254 Secure Boot: Disabled
00:00:00.238277 Host RAM: 64178MB (62.6GB) total, 58781MB (57.4GB) available
00:00:00.238279 Executable: /usr/lib/virtualbox/VirtualBox
00:00:00.238279 Process ID: 3707214
00:00:00.238280 Package type: LINUX_64BITS_GENERIC (OSE)
00:00:00.238296 Qt version: 5.15.6
00:00:00.243654 GUI: UIMediumEnumerator: Medium-enumeration started...
00:00:00.507402 GUI: UIDesktopWidgetWatchdog::sltHandleHostScreenAvailableGeometryCalculated: Screen 0 work area is actually resized to: 0x30 x 3840x2130
00:00:00.513220 GUI: UIMediumEnumerator: Medium-enumeration finished!
00:01:10.056486 GUI: UIMediumEnumerator: Medium with key={{fedee5d7-7771-41ae-b2c1-0cb50fd526fb}} created
00:01:10.196963 GUI: UIMediumEnumerator: Medium-enumeration finished!
00:01:56.384984 GUI: UIMediumEnumerator: Medium-enumeration finished!
00:02:11.988146 GUI: UIMediumEnumerator: Medium-enumeration finished!
00:02:12.008412 GUI: UIMediumEnumerator: Medium-enumeration finished!
00:28:00.901448 GUI: UIMediumEnumerator: Medium-enumeration finished!
00:30:36.910235 GUI: UIMediumEnumerator: Medium-enumeration finished!
00:30:36.963958 GUI: UIMediumEnumerator: Medium-enumeration finished!
00:33:07.794187 GUI: UIMediumEnumerator: Medium-enumeration finished!
00:33:07.824013 GUI: UIMediumEnumerator: Medium-enumeration finished!
