00:00:00.000135 main     VirtualBox XPCOM Server 6.1.36 r152435 linux.amd64 (Jul 21 2022 10:08:57) release log
00:00:00.000136 main     Log opened 2022-08-15T01:02:08.980114000Z
00:00:00.000136 main     Build Type: release
00:00:00.000137 main     OS Product: Linux
00:00:00.000137 main     OS Release: 5.19.1-arch2-1
00:00:00.000138 main     OS Version: #1 SMP PREEMPT_DYNAMIC Thu, 11 Aug 2022 16:06:13 +0000
00:00:00.000151 main     DMI Product Name: Z590 UD AC
00:00:00.000154 main     DMI Product Version: Default string
00:00:00.000157 main     Firmware type: UEFI
00:00:00.000366 main     Secure Boot: Disabled
00:00:00.000386 main     Host RAM: 64178MB (62.6GB) total, 59108MB (57.7GB) available
00:00:00.000388 main     Executable: /usr/lib/virtualbox/VBoxSVC
00:00:00.000388 main     Process ID: 95360
00:00:00.000388 main     Package type: LINUX_64BITS_GENERIC (OSE)
00:00:00.001195 main     IPC socket path: /tmp/.vbox-mariah-ipc/ipcd
00:00:00.104112 nspr-2   VirtualBox: object creation starts
00:00:00.104160 nspr-2   Home directory: '/home/mariah/.config/VirtualBox'
00:00:00.104229 nspr-2   Loading settings file "/home/mariah/.config/VirtualBox/VirtualBox.xml" with version "1.12-linux"
00:00:00.110685 nspr-2   HostDnsMonitor: initializing
00:00:00.110781 nspr-2   NAT: resolv.conf: nameserver 75.75.75.75
00:00:00.110788 nspr-2   NAT: resolv.conf: nameserver 75.75.76.76
00:00:00.110791 nspr-2   NAT: resolv.conf: nameserver 2001:558:feed::1
00:00:00.110793 nspr-2   NAT: resolv.conf: too many nameserver lines, ignoring 2001:558:feed::2
00:00:00.110794 nspr-2   NAT: resolv.conf: too many nameserver lines, ignoring 2601:602:c900:ee00:fa79:aff:fe4e:22a2
00:00:00.110798 nspr-2   HostDnsMonitor: updating information
00:00:00.110805 nspr-2   HostDnsMonitor: old information
00:00:00.110806 nspr-2     no server entries
00:00:00.110807 nspr-2     no domain set
00:00:00.110808 nspr-2     no search string entries
00:00:00.110810 nspr-2   HostDnsMonitor: new information
00:00:00.110811 nspr-2     server 1: 75.75.75.75
00:00:00.110812 nspr-2     server 2: 75.75.76.76
00:00:00.110813 nspr-2     server 3: 2001:558:feed::1
00:00:00.110814 nspr-2     domain: hsd1.wa.comcast.net
00:00:00.110815 nspr-2     search string 1: hsd1.wa.comcast.net
00:00:00.111848 nspr-2   Failed to open "/dev/vboxdrvu", errno=2, rc=VERR_VM_DRIVER_NOT_INSTALLED
00:00:00.111928 nspr-2   VD: VDInit finished with VINF_SUCCESS
00:00:00.111962 nspr-2   ERROR [COM]: aRC=NS_ERROR_FAILURE (0x80004005) aIID={027bc463-929c-40e8-bf16-fea557cd8e7e} aComponent={SystemPropertiesWrap} aText={Cannot determine default Guest Additions ISO location. Most likely they are not available}, preserve=false aResultDetail=0
00:00:00.114119 nspr-2   ERROR [COM]: aRC=NS_ERROR_FAILURE (0x80004005) aIID={85632c68-b5bb-4316-a900-5eb28d3413df} aComponent={MachineWrap} aText={Runtime error opening '/home/mariah/VirtualBox VMs/pearos/pearos.vbox' for reading: -102 (File not found.).
00:00:00.114122 nspr-2   /build/virtualbox/src/VirtualBox-6.1.36/src/VBox/Main/src-server/MachineImpl.cpp[754] (nsresult Machine::i_registeredInit())}, preserve=false aResultDetail=0
00:00:00.114306 nspr-2   VirtualBox: object created
00:00:00.117511 nspr-2   Failed to open "/dev/vboxdrvu", errno=2, rc=VERR_VM_DRIVER_NOT_INSTALLED
00:00:00.117652 nspr-2   Failed to open "/dev/vboxdrvu", errno=2, rc=VERR_VM_DRIVER_NOT_INSTALLED
00:00:00.117709 nspr-2   Failed to open "/dev/vboxdrvu", errno=2, rc=VERR_VM_DRIVER_NOT_INSTALLED
00:00:00.117756 nspr-2   Failed to open "/dev/vboxdrvu", errno=2, rc=VERR_VM_DRIVER_NOT_INSTALLED
00:00:05.203465 main     VirtualBox: object deletion starts
00:00:05.203605 main     HostDnsMonitor: shutting down ...
00:00:05.203673 main     HostDnsMonitor: shut down
00:00:05.615264 Watcher  ERROR [COM]: aRC=E_ACCESSDENIED (0x80070005) aIID={d0a0163f-e254-4e5b-a1f2-011cf991c38d} aComponent={VirtualBoxWrap} aText={The object is not ready}, preserve=false aResultDetail=0
00:00:10.203777 main     {00007ff57c019890} HostPowerServiceLinux::~HostPowerServiceLinux: RTThreadWait() for 5000 ms failed with VERR_TIMEOUT
00:00:10.204266 main     VirtualBox: object deleted
