00:00:00.000176 main     VirtualBox XPCOM Server 6.1.36 r152435 linux.amd64 (Jul 21 2022 10:08:57) release log
00:00:00.000178 main     Log opened 2022-08-15T01:04:28.058848000Z
00:00:00.000179 main     Build Type: release
00:00:00.000180 main     OS Product: Linux
00:00:00.000181 main     OS Release: 5.19.1-arch2-1
00:00:00.000181 main     OS Version: #1 SMP PREEMPT_DYNAMIC Thu, 11 Aug 2022 16:06:13 +0000
00:00:00.000200 main     DMI Product Name: Z590 UD AC
00:00:00.000204 main     DMI Product Version: Default string
00:00:00.000208 main     Firmware type: UEFI
00:00:00.000391 main     Secure Boot: Disabled
00:00:00.000417 main     Host RAM: 64178MB (62.6GB) total, 58873MB (57.4GB) available
00:00:00.000419 main     Executable: /usr/lib/virtualbox/VBoxSVC
00:00:00.000419 main     Process ID: 97658
00:00:00.000420 main     Package type: LINUX_64BITS_GENERIC (OSE)
00:00:00.001566 main     IPC socket path: /tmp/.vbox-mariah-ipc/ipcd
00:00:00.104478 nspr-2   VirtualBox: object creation starts
00:00:00.104524 nspr-2   Home directory: '/home/mariah/.config/VirtualBox'
00:00:00.104594 nspr-2   Loading settings file "/home/mariah/.config/VirtualBox/VirtualBox.xml" with version "1.12-linux"
00:00:00.111356 nspr-2   HostDnsMonitor: initializing
00:00:00.111478 nspr-2   NAT: resolv.conf: nameserver 75.75.75.75
00:00:00.111486 nspr-2   NAT: resolv.conf: nameserver 75.75.76.76
00:00:00.111489 nspr-2   NAT: resolv.conf: nameserver 2001:558:feed::1
00:00:00.111491 nspr-2   NAT: resolv.conf: too many nameserver lines, ignoring 2001:558:feed::2
00:00:00.111492 nspr-2   NAT: resolv.conf: too many nameserver lines, ignoring 2601:602:c900:ee00:fa79:aff:fe4e:22a2
00:00:00.111496 nspr-2   HostDnsMonitor: updating information
00:00:00.111504 nspr-2   HostDnsMonitor: old information
00:00:00.111505 nspr-2     no server entries
00:00:00.111507 nspr-2     no domain set
00:00:00.111508 nspr-2     no search string entries
00:00:00.111509 nspr-2   HostDnsMonitor: new information
00:00:00.111510 nspr-2     server 1: 75.75.75.75
00:00:00.111511 nspr-2     server 2: 75.75.76.76
00:00:00.111512 nspr-2     server 3: 2001:558:feed::1
00:00:00.111513 nspr-2     domain: hsd1.wa.comcast.net
00:00:00.111515 nspr-2     search string 1: hsd1.wa.comcast.net
00:00:00.112589 nspr-2   Failed to open "/dev/vboxdrvu", errno=2, rc=VERR_VM_DRIVER_NOT_INSTALLED
00:00:00.112724 nspr-2   VD: VDInit finished with VINF_SUCCESS
00:00:00.112771 nspr-2   ERROR [COM]: aRC=NS_ERROR_FAILURE (0x80004005) aIID={027bc463-929c-40e8-bf16-fea557cd8e7e} aComponent={SystemPropertiesWrap} aText={Cannot determine default Guest Additions ISO location. Most likely they are not available}, preserve=false aResultDetail=0
00:00:00.113030 nspr-2   VirtualBox: object created
00:00:00.116322 nspr-2   Failed to open "/dev/vboxdrvu", errno=2, rc=VERR_VM_DRIVER_NOT_INSTALLED
00:00:00.116471 nspr-2   Failed to open "/dev/vboxdrvu", errno=2, rc=VERR_VM_DRIVER_NOT_INSTALLED
00:00:00.116531 nspr-2   Failed to open "/dev/vboxdrvu", errno=2, rc=VERR_VM_DRIVER_NOT_INSTALLED
00:00:00.116585 nspr-2   Failed to open "/dev/vboxdrvu", errno=2, rc=VERR_VM_DRIVER_NOT_INSTALLED
00:00:05.201403 main     VirtualBox: object deletion starts
00:00:05.202032 main     HostDnsMonitor: shutting down ...
00:00:05.214571 main     HostDnsMonitor: shut down
00:00:05.614008 Watcher  ERROR [COM]: aRC=E_ACCESSDENIED (0x80070005) aIID={d0a0163f-e254-4e5b-a1f2-011cf991c38d} aComponent={VirtualBoxWrap} aText={The object is not ready}, preserve=false aResultDetail=0
00:00:10.214725 main     {00007f43cc019160} HostPowerServiceLinux::~HostPowerServiceLinux: RTThreadWait() for 5000 ms failed with VERR_TIMEOUT
00:00:10.215342 main     VirtualBox: object deleted
