00:00:00.000174 main     VirtualBox XPCOM Server 6.1.36 r152435 linux.amd64 (Jul 21 2022 10:08:57) release log
00:00:00.000177 main     Log opened 2022-08-15T01:10:06.178115000Z
00:00:00.000177 main     Build Type: release
00:00:00.000179 main     OS Product: Linux
00:00:00.000179 main     OS Release: 5.19.1-arch2-1
00:00:00.000180 main     OS Version: #1 SMP PREEMPT_DYNAMIC Thu, 11 Aug 2022 16:06:13 +0000
00:00:00.000196 main     DMI Product Name: Z590 UD AC
00:00:00.000199 main     DMI Product Version: Default string
00:00:00.000202 main     Firmware type: UEFI
00:00:00.000350 main     Secure Boot: Disabled
00:00:00.000377 main     Host RAM: 64178MB (62.6GB) total, 58482MB (57.1GB) available
00:00:00.000379 main     Executable: /usr/lib/virtualbox/VBoxSVC
00:00:00.000379 main     Process ID: 102923
00:00:00.000379 main     Package type: LINUX_64BITS_GENERIC (OSE)
00:00:00.002007 main     IPC socket path: /tmp/.vbox-mariah-ipc/ipcd
00:00:00.104749 nspr-2   VirtualBox: object creation starts
00:00:00.104816 nspr-2   Home directory: '/home/mariah/.config/VirtualBox'
00:00:00.104902 nspr-2   Loading settings file "/home/mariah/.config/VirtualBox/VirtualBox.xml" with version "1.12-linux"
00:00:00.111349 nspr-2   HostDnsMonitor: initializing
00:00:00.111490 nspr-2   NAT: resolv.conf: nameserver 75.75.75.75
00:00:00.111495 nspr-2   NAT: resolv.conf: nameserver 75.75.76.76
00:00:00.111497 nspr-2   NAT: resolv.conf: nameserver 2001:558:feed::1
00:00:00.111499 nspr-2   NAT: resolv.conf: too many nameserver lines, ignoring 2001:558:feed::2
00:00:00.111500 nspr-2   NAT: resolv.conf: too many nameserver lines, ignoring 2601:602:c900:ee00:fa79:aff:fe4e:22a2
00:00:00.111509 nspr-2   HostDnsMonitor: updating information
00:00:00.111514 nspr-2   HostDnsMonitor: old information
00:00:00.111515 nspr-2     no server entries
00:00:00.111517 nspr-2     no domain set
00:00:00.111518 nspr-2     no search string entries
00:00:00.111519 nspr-2   HostDnsMonitor: new information
00:00:00.111520 nspr-2     server 1: 75.75.75.75
00:00:00.111521 nspr-2     server 2: 75.75.76.76
00:00:00.111522 nspr-2     server 3: 2001:558:feed::1
00:00:00.111523 nspr-2     domain: hsd1.wa.comcast.net
00:00:00.111524 nspr-2     search string 1: hsd1.wa.comcast.net
00:00:00.112841 nspr-2   Failed to open "/dev/vboxdrvu", errno=2, rc=VERR_VM_DRIVER_NOT_INSTALLED
00:00:00.112946 nspr-2   VD: VDInit finished with VINF_SUCCESS
00:00:00.112984 nspr-2   ERROR [COM]: aRC=NS_ERROR_FAILURE (0x80004005) aIID={027bc463-929c-40e8-bf16-fea557cd8e7e} aComponent={SystemPropertiesWrap} aText={Cannot determine default Guest Additions ISO location. Most likely they are not available}, preserve=false aResultDetail=0
00:00:00.113226 nspr-2   VirtualBox: object created
00:00:00.117089 nspr-2   Failed to open "/dev/vboxdrvu", errno=2, rc=VERR_VM_DRIVER_NOT_INSTALLED
00:00:00.117474 nspr-2   Failed to open "/dev/vboxdrvu", errno=2, rc=VERR_VM_DRIVER_NOT_INSTALLED
00:00:00.117527 nspr-2   Failed to open "/dev/vboxdrvu", errno=2, rc=VERR_VM_DRIVER_NOT_INSTALLED
00:00:00.117598 nspr-2   Failed to open "/dev/vboxdrvu", errno=2, rc=VERR_VM_DRIVER_NOT_INSTALLED
00:00:05.204584 main     VirtualBox: object deletion starts
00:00:05.205230 main     HostDnsMonitor: shutting down ...
00:00:05.218513 main     HostDnsMonitor: shut down
00:00:05.614207 Watcher  ERROR [COM]: aRC=E_ACCESSDENIED (0x80070005) aIID={d0a0163f-e254-4e5b-a1f2-011cf991c38d} aComponent={VirtualBoxWrap} aText={The object is not ready}, preserve=false aResultDetail=0
00:00:10.218589 main     {00007fcdac019160} HostPowerServiceLinux::~HostPowerServiceLinux: RTThreadWait() for 5000 ms failed with VERR_TIMEOUT
00:00:10.218736 main     VirtualBox: object deleted
