00:00:00.000122 main     VirtualBox XPCOM Server 6.1.36 r152435 linux.amd64 (Jul 21 2022 10:08:57) release log
00:00:00.000123 main     Log opened 2022-08-15T01:00:53.721651000Z
00:00:00.000124 main     Build Type: release
00:00:00.000125 main     OS Product: Linux
00:00:00.000126 main     OS Release: 5.19.1-arch2-1
00:00:00.000126 main     OS Version: #1 SMP PREEMPT_DYNAMIC Thu, 11 Aug 2022 16:06:13 +0000
00:00:00.000139 main     DMI Product Name: Z590 UD AC
00:00:00.000143 main     DMI Product Version: Default string
00:00:00.000145 main     Firmware type: UEFI
00:00:00.000287 main     Secure Boot: Disabled
00:00:00.000307 main     Host RAM: 64178MB (62.6GB) total, 59156MB (57.7GB) available
00:00:00.000308 main     Executable: /usr/lib/virtualbox/VBoxSVC
00:00:00.000309 main     Process ID: 94077
00:00:00.000309 main     Package type: LINUX_64BITS_GENERIC (OSE)
00:00:00.001275 main     IPC socket path: /tmp/.vbox-mariah-ipc/ipcd
00:00:00.103894 nspr-2   VirtualBox: object creation starts
00:00:00.103948 nspr-2   Home directory: '/home/mariah/.config/VirtualBox'
00:00:00.111557 nspr-2   Loading settings file "/home/mariah/.config/VirtualBox/VirtualBox.xml" with version "1.12-linux"
00:00:00.117931 nspr-2   HostDnsMonitor: initializing
00:00:00.118004 nspr-2   NAT: resolv.conf: nameserver 75.75.75.75
00:00:00.118009 nspr-2   NAT: resolv.conf: nameserver 75.75.76.76
00:00:00.118011 nspr-2   NAT: resolv.conf: nameserver 2001:558:feed::1
00:00:00.118013 nspr-2   NAT: resolv.conf: too many nameserver lines, ignoring 2001:558:feed::2
00:00:00.118014 nspr-2   NAT: resolv.conf: too many nameserver lines, ignoring 2601:602:c900:ee00:fa79:aff:fe4e:22a2
00:00:00.118021 nspr-2   HostDnsMonitor: updating information
00:00:00.118026 nspr-2   HostDnsMonitor: old information
00:00:00.118028 nspr-2     no server entries
00:00:00.118029 nspr-2     no domain set
00:00:00.118030 nspr-2     no search string entries
00:00:00.118031 nspr-2   HostDnsMonitor: new information
00:00:00.118032 nspr-2     server 1: 75.75.75.75
00:00:00.118033 nspr-2     server 2: 75.75.76.76
00:00:00.118035 nspr-2     server 3: 2001:558:feed::1
00:00:00.118036 nspr-2     domain: hsd1.wa.comcast.net
00:00:00.118037 nspr-2     search string 1: hsd1.wa.comcast.net
00:00:00.119027 nspr-2   Failed to open "/dev/vboxdrvu", errno=2, rc=VERR_VM_DRIVER_NOT_INSTALLED
00:00:00.119126 nspr-2   VD: VDInit finished with VINF_SUCCESS
00:00:00.119166 nspr-2   ERROR [COM]: aRC=NS_ERROR_FAILURE (0x80004005) aIID={027bc463-929c-40e8-bf16-fea557cd8e7e} aComponent={SystemPropertiesWrap} aText={Cannot determine default Guest Additions ISO location. Most likely they are not available}, preserve=false aResultDetail=0
00:00:00.121691 nspr-2   ERROR [COM]: aRC=NS_ERROR_FAILURE (0x80004005) aIID={85632c68-b5bb-4316-a900-5eb28d3413df} aComponent={MachineWrap} aText={Runtime error opening '/home/mariah/VirtualBox VMs/pearos/pearos.vbox' for reading: -102 (File not found.).
00:00:00.121694 nspr-2   /build/virtualbox/src/VirtualBox-6.1.36/src/VBox/Main/src-server/MachineImpl.cpp[754] (nsresult Machine::i_registeredInit())}, preserve=false aResultDetail=0
00:00:00.121859 nspr-2   VirtualBox: object created
00:00:00.124925 nspr-2   Failed to open "/dev/vboxdrvu", errno=2, rc=VERR_VM_DRIVER_NOT_INSTALLED
00:00:00.125058 nspr-2   Failed to open "/dev/vboxdrvu", errno=2, rc=VERR_VM_DRIVER_NOT_INSTALLED
00:00:00.125111 nspr-2   Failed to open "/dev/vboxdrvu", errno=2, rc=VERR_VM_DRIVER_NOT_INSTALLED
00:00:00.125158 nspr-2   Failed to open "/dev/vboxdrvu", errno=2, rc=VERR_VM_DRIVER_NOT_INSTALLED
00:00:05.208731 main     VirtualBox: object deletion starts
00:00:05.208872 main     HostDnsMonitor: shutting down ...
00:00:05.208917 main     HostDnsMonitor: shut down
00:00:05.622617 Watcher  ERROR [COM]: aRC=E_ACCESSDENIED (0x80070005) aIID={d0a0163f-e254-4e5b-a1f2-011cf991c38d} aComponent={VirtualBoxWrap} aText={The object is not ready}, preserve=false aResultDetail=0
00:00:10.208988 main     {00007f016c019890} HostPowerServiceLinux::~HostPowerServiceLinux: RTThreadWait() for 5000 ms failed with VERR_TIMEOUT
00:00:10.209268 main     VirtualBox: object deleted
