00:00:00.000130 main     VirtualBox XPCOM Server 6.1.36 r152435 linux.amd64 (Jul 21 2022 10:08:57) release log
00:00:00.000132 main     Log opened 2022-08-15T01:03:00.242153000Z
00:00:00.000132 main     Build Type: release
00:00:00.000133 main     OS Product: Linux
00:00:00.000133 main     OS Release: 5.19.1-arch2-1
00:00:00.000134 main     OS Version: #1 SMP PREEMPT_DYNAMIC Thu, 11 Aug 2022 16:06:13 +0000
00:00:00.000146 main     DMI Product Name: Z590 UD AC
00:00:00.000149 main     DMI Product Version: Default string
00:00:00.000152 main     Firmware type: UEFI
00:00:00.000301 main     Secure Boot: Disabled
00:00:00.000322 main     Host RAM: 64178MB (62.6GB) total, 59094MB (57.7GB) available
00:00:00.000324 main     Executable: /usr/lib/virtualbox/VBoxSVC
00:00:00.000324 main     Process ID: 96209
00:00:00.000324 main     Package type: LINUX_64BITS_GENERIC (OSE)
00:00:00.001078 main     IPC socket path: /tmp/.vbox-mariah-ipc/ipcd
00:00:00.103874 nspr-2   VirtualBox: object creation starts
00:00:00.103921 nspr-2   Home directory: '/home/mariah/.config/VirtualBox'
00:00:00.103990 nspr-2   Loading settings file "/home/mariah/.config/VirtualBox/VirtualBox.xml" with version "1.12-linux"
00:00:00.111206 nspr-2   HostDnsMonitor: initializing
00:00:00.111356 nspr-2   NAT: resolv.conf: nameserver 75.75.75.75
00:00:00.111361 nspr-2   NAT: resolv.conf: nameserver 75.75.76.76
00:00:00.111364 nspr-2   NAT: resolv.conf: nameserver 2001:558:feed::1
00:00:00.111367 nspr-2   NAT: resolv.conf: too many nameserver lines, ignoring 2001:558:feed::2
00:00:00.111368 nspr-2   NAT: resolv.conf: too many nameserver lines, ignoring 2601:602:c900:ee00:fa79:aff:fe4e:22a2
00:00:00.111372 nspr-2   HostDnsMonitor: updating information
00:00:00.111377 nspr-2   HostDnsMonitor: old information
00:00:00.111380 nspr-2     no server entries
00:00:00.111381 nspr-2     no domain set
00:00:00.111382 nspr-2     no search string entries
00:00:00.111383 nspr-2   HostDnsMonitor: new information
00:00:00.111385 nspr-2     server 1: 75.75.75.75
00:00:00.111386 nspr-2     server 2: 75.75.76.76
00:00:00.111387 nspr-2     server 3: 2001:558:feed::1
00:00:00.111388 nspr-2     domain: hsd1.wa.comcast.net
00:00:00.111389 nspr-2     search string 1: hsd1.wa.comcast.net
00:00:00.112497 nspr-2   Failed to open "/dev/vboxdrvu", errno=2, rc=VERR_VM_DRIVER_NOT_INSTALLED
00:00:00.112582 nspr-2   VD: VDInit finished with VINF_SUCCESS
00:00:00.112619 nspr-2   ERROR [COM]: aRC=NS_ERROR_FAILURE (0x80004005) aIID={027bc463-929c-40e8-bf16-fea557cd8e7e} aComponent={SystemPropertiesWrap} aText={Cannot determine default Guest Additions ISO location. Most likely they are not available}, preserve=false aResultDetail=0
00:00:00.114934 nspr-2   ERROR [COM]: aRC=NS_ERROR_FAILURE (0x80004005) aIID={85632c68-b5bb-4316-a900-5eb28d3413df} aComponent={MachineWrap} aText={Runtime error opening '/home/mariah/VirtualBox VMs/pearos/pearos.vbox' for reading: -102 (File not found.).
00:00:00.114937 nspr-2   /build/virtualbox/src/VirtualBox-6.1.36/src/VBox/Main/src-server/MachineImpl.cpp[754] (nsresult Machine::i_registeredInit())}, preserve=false aResultDetail=0
00:00:00.115105 nspr-2   VirtualBox: object created
00:00:00.364450 nspr-3   ERROR [COM]: aRC=NS_ERROR_FAILURE (0x80004005) aIID={85632c68-b5bb-4316-a900-5eb28d3413df} aComponent={MachineWrap} aText={Runtime error opening '/home/mariah/VirtualBox VMs/pearos/pearos.vbox' for reading: -102 (File not found.).
00:00:00.364454 nspr-3   /build/virtualbox/src/VirtualBox-6.1.36/src/VBox/Main/src-server/MachineImpl.cpp[754] (nsresult Machine::i_registeredInit())}, preserve=false aResultDetail=0
00:00:00.364610 nspr-3   ERROR [COM]: aRC=NS_ERROR_FAILURE (0x80004005) aIID={85632c68-b5bb-4316-a900-5eb28d3413df} aComponent={MachineWrap} aText={Runtime error opening '/home/mariah/VirtualBox VMs/pearos/pearos.vbox' for reading: -102 (File not found.).
00:00:00.364612 nspr-3   /build/virtualbox/src/VirtualBox-6.1.36/src/VBox/Main/src-server/MachineImpl.cpp[754] (nsresult Machine::i_registeredInit())}, preserve=false aResultDetail=0
00:00:00.364947 nspr-3   ERROR [COM]: aRC=NS_ERROR_FAILURE (0x80004005) aIID={85632c68-b5bb-4316-a900-5eb28d3413df} aComponent={MachineWrap} aText={Runtime error opening '/home/mariah/VirtualBox VMs/pearos/pearos.vbox' for reading: -102 (File not found.).
00:00:00.364949 nspr-3   /build/virtualbox/src/VirtualBox-6.1.36/src/VBox/Main/src-server/MachineImpl.cpp[754] (nsresult Machine::i_registeredInit())}, preserve=false aResultDetail=0
00:00:00.370189 nspr-3   ERROR [COM]: aRC=E_ACCESSDENIED (0x80070005) aIID={85632c68-b5bb-4316-a900-5eb28d3413df} aComponent={MachineWrap} aText={The object functionality is limited}, preserve=false aResultDetail=0
00:00:00.370208 nspr-3   ERROR [COM]: aRC=VBOX_E_OBJECT_NOT_FOUND (0x80bb0001) aIID={d0a0163f-e254-4e5b-a1f2-011cf991c38d} aComponent={VirtualBoxWrap} aText={Could not find a registered machine named 'pearos'}, preserve=false aResultDetail=0
00:00:16.589565 nspr-3   ERROR [COM]: aRC=E_ACCESSDENIED (0x80070005) aIID={85632c68-b5bb-4316-a900-5eb28d3413df} aComponent={MachineWrap} aText={The object functionality is limited}, preserve=false aResultDetail=0
00:00:16.597312 nspr-3   ERROR [COM]: aRC=NS_ERROR_FAILURE (0x80004005) aIID={85632c68-b5bb-4316-a900-5eb28d3413df} aComponent={MachineWrap} aText={Runtime error opening '/home/mariah/VirtualBox VMs/pearos/pearos.vbox' for reading: -102 (File not found.).
00:00:16.597314 nspr-3   /build/virtualbox/src/VirtualBox-6.1.36/src/VBox/Main/src-server/MachineImpl.cpp[754] (nsresult Machine::i_registeredInit())}, preserve=false aResultDetail=0
00:00:16.606358 nspr-3   ERROR [COM]: aRC=NS_ERROR_FAILURE (0x80004005) aIID={85632c68-b5bb-4316-a900-5eb28d3413df} aComponent={MachineWrap} aText={Runtime error opening '/home/mariah/VirtualBox VMs/pearos/pearos.vbox' for reading: -102 (File not found.).
00:00:16.606362 nspr-3   /build/virtualbox/src/VirtualBox-6.1.36/src/VBox/Main/src-server/MachineImpl.cpp[754] (nsresult Machine::i_registeredInit())}, preserve=false aResultDetail=0
00:00:16.682918 nspr-2   ERROR [COM]: aRC=NS_ERROR_FAILURE (0x80004005) aIID={85632c68-b5bb-4316-a900-5eb28d3413df} aComponent={MachineWrap} aText={Runtime error opening '/home/mariah/VirtualBox VMs/pearos/pearos.vbox' for reading: -102 (File not found.).
00:00:16.682922 nspr-2   /build/virtualbox/src/VirtualBox-6.1.36/src/VBox/Main/src-server/MachineImpl.cpp[754] (nsresult Machine::i_registeredInit())}, preserve=false aResultDetail=0
00:00:16.683058 nspr-2   ERROR [COM]: aRC=E_ACCESSDENIED (0x80070005) aIID={85632c68-b5bb-4316-a900-5eb28d3413df} aComponent={MachineWrap} aText={The object functionality is limited}, preserve=false aResultDetail=0
00:00:16.683443 nspr-2   ERROR [COM]: aRC=E_ACCESSDENIED (0x80070005) aIID={85632c68-b5bb-4316-a900-5eb28d3413df} aComponent={MachineWrap} aText={The object functionality is limited}, preserve=false aResultDetail=0
00:00:16.684198 nspr-2   ERROR [COM]: aRC=E_ACCESSDENIED (0x80070005) aIID={85632c68-b5bb-4316-a900-5eb28d3413df} aComponent={MachineWrap} aText={The object functionality is limited}, preserve=false aResultDetail=0
00:00:16.684835 nspr-2   ERROR [COM]: aRC=E_ACCESSDENIED (0x80070005) aIID={85632c68-b5bb-4316-a900-5eb28d3413df} aComponent={MachineWrap} aText={The object functionality is limited}, preserve=false aResultDetail=0
00:00:16.686145 nspr-2   ERROR [COM]: aRC=NS_ERROR_FAILURE (0x80004005) aIID={85632c68-b5bb-4316-a900-5eb28d3413df} aComponent={MachineWrap} aText={Runtime error opening '/home/mariah/VirtualBox VMs/pearos/pearos.vbox' for reading: -102 (File not found.).
00:00:16.686147 nspr-2   /build/virtualbox/src/VirtualBox-6.1.36/src/VBox/Main/src-server/MachineImpl.cpp[754] (nsresult Machine::i_registeredInit())}, preserve=false aResultDetail=0
00:00:16.687163 nspr-2   ERROR [COM]: aRC=NS_ERROR_FAILURE (0x80004005) aIID={85632c68-b5bb-4316-a900-5eb28d3413df} aComponent={MachineWrap} aText={Runtime error opening '/home/mariah/VirtualBox VMs/pearos/pearos.vbox' for reading: -102 (File not found.).
00:00:16.687165 nspr-2   /build/virtualbox/src/VirtualBox-6.1.36/src/VBox/Main/src-server/MachineImpl.cpp[754] (nsresult Machine::i_registeredInit())}, preserve=false aResultDetail=0
00:00:16.687940 nspr-2   ERROR [COM]: aRC=NS_ERROR_FAILURE (0x80004005) aIID={85632c68-b5bb-4316-a900-5eb28d3413df} aComponent={MachineWrap} aText={Runtime error opening '/home/mariah/VirtualBox VMs/pearos/pearos.vbox' for reading: -102 (File not found.).
00:00:16.687942 nspr-2   /build/virtualbox/src/VirtualBox-6.1.36/src/VBox/Main/src-server/MachineImpl.cpp[754] (nsresult Machine::i_registeredInit())}, preserve=false aResultDetail=0
00:00:16.688706 nspr-2   ERROR [COM]: aRC=NS_ERROR_FAILURE (0x80004005) aIID={85632c68-b5bb-4316-a900-5eb28d3413df} aComponent={MachineWrap} aText={Runtime error opening '/home/mariah/VirtualBox VMs/pearos/pearos.vbox' for reading: -102 (File not found.).
00:00:16.688708 nspr-2   /build/virtualbox/src/VirtualBox-6.1.36/src/VBox/Main/src-server/MachineImpl.cpp[754] (nsresult Machine::i_registeredInit())}, preserve=false aResultDetail=0
00:00:16.690398 nspr-2   ERROR [COM]: aRC=NS_ERROR_FAILURE (0x80004005) aIID={85632c68-b5bb-4316-a900-5eb28d3413df} aComponent={MachineWrap} aText={Runtime error opening '/home/mariah/VirtualBox VMs/pearos/pearos.vbox' for reading: -102 (File not found.).
00:00:16.690400 nspr-2   /build/virtualbox/src/VirtualBox-6.1.36/src/VBox/Main/src-server/MachineImpl.cpp[754] (nsresult Machine::i_registeredInit())}, preserve=false aResultDetail=0
00:00:16.691587 nspr-2   ERROR [COM]: aRC=NS_ERROR_FAILURE (0x80004005) aIID={85632c68-b5bb-4316-a900-5eb28d3413df} aComponent={MachineWrap} aText={Runtime error opening '/home/mariah/VirtualBox VMs/pearos/pearos.vbox' for reading: -102 (File not found.).
00:00:16.691589 nspr-2   /build/virtualbox/src/VirtualBox-6.1.36/src/VBox/Main/src-server/MachineImpl.cpp[754] (nsresult Machine::i_registeredInit())}, preserve=false aResultDetail=0
00:00:24.344354 nspr-3   ERROR [COM]: aRC=NS_ERROR_FAILURE (0x80004005) aIID={85632c68-b5bb-4316-a900-5eb28d3413df} aComponent={MachineWrap} aText={Runtime error opening '/home/mariah/VirtualBox VMs/pearos/pearos.vbox' for reading: -102 (File not found.).
00:00:24.344420 nspr-3   /build/virtualbox/src/VirtualBox-6.1.36/src/VBox/Main/src-server/MachineImpl.cpp[754] (nsresult Machine::i_registeredInit())}, preserve=false aResultDetail=0
00:00:30.116143 nspr-2   Saving settings file "/home/mariah/.config/VirtualBox/VirtualBox.xml" with version "1.12-linux"
00:00:41.094909 nspr-3   Saving settings file "/home/mariah/.config/VirtualBox/VirtualBox.xml" with version "1.12-linux"
00:00:41.106350 nspr-3   Saving settings file "/home/mariah/.config/VirtualBox/VirtualBox.xml" with version "1.12-linux"
00:00:41.121543 nspr-2   Saving settings file "/home/mariah/.config/VirtualBox/VirtualBox.xml" with version "1.12-linux"
00:00:46.662094 main     VirtualBox: object deletion starts
00:00:46.662226 main     HostDnsMonitor: shutting down ...
00:00:46.665320 main     HostDnsMonitor: shut down
00:00:47.122842 Watcher  ERROR [COM]: aRC=E_ACCESSDENIED (0x80070005) aIID={d0a0163f-e254-4e5b-a1f2-011cf991c38d} aComponent={VirtualBoxWrap} aText={The object is not ready}, preserve=false aResultDetail=0
00:00:51.665424 main     {00007fd384019890} HostPowerServiceLinux::~HostPowerServiceLinux: RTThreadWait() for 5000 ms failed with VERR_TIMEOUT
00:00:51.665781 main     VirtualBox: object deleted
