00:00:00.001275 main     VirtualBox XPCOM Server 6.1.36 r152435 linux.amd64 (Jul 21 2022 10:08:57) release log
00:00:00.001276 main     Log opened 2022-08-15T01:54:33.187637000Z
00:00:00.001276 main     Build Type: release
00:00:00.001278 main     OS Product: Linux
00:00:00.001278 main     OS Release: 5.19.1-arch2-1
00:00:00.001279 main     OS Version: #1 SMP PREEMPT_DYNAMIC Thu, 11 Aug 2022 16:06:13 +0000
00:00:00.001290 main     DMI Product Name: Z590 UD AC
00:00:00.001293 main     DMI Product Version: Default string
00:00:00.001295 main     Firmware type: UEFI
00:00:00.001584 main     Secure Boot: Disabled
00:00:00.001604 main     Host RAM: 64178MB (62.6GB) total, 62388MB (60.9GB) available
00:00:00.001606 main     Executable: /usr/lib/virtualbox/VBoxSVC
00:00:00.001607 main     Process ID: 2290
00:00:00.001607 main     Package type: LINUX_64BITS_GENERIC (OSE)
00:00:00.002375 main     IPC socket path: /tmp/.vbox-mariah-ipc/ipcd
00:00:00.111015 nspr-2   VirtualBox: object creation starts
00:00:00.111060 nspr-2   Home directory: '/home/mariah/.config/VirtualBox'
00:00:00.111382 nspr-2   Loading settings file "/home/mariah/.config/VirtualBox/VirtualBox.xml" with version "1.12-linux"
00:00:00.123478 nspr-2   HostDnsMonitor: initializing
00:00:00.123596 nspr-2   NAT: resolv.conf: nameserver 75.75.75.75
00:00:00.123600 nspr-2   NAT: resolv.conf: nameserver 75.75.76.76
00:00:00.123602 nspr-2   NAT: resolv.conf: nameserver 2001:558:feed::1
00:00:00.123604 nspr-2   NAT: resolv.conf: too many nameserver lines, ignoring 2001:558:feed::2
00:00:00.123606 nspr-2   NAT: resolv.conf: too many nameserver lines, ignoring 2601:602:c900:ee00:fa79:aff:fe4e:22a2
00:00:00.123609 nspr-2   HostDnsMonitor: updating information
00:00:00.123614 nspr-2   HostDnsMonitor: old information
00:00:00.123616 nspr-2     no server entries
00:00:00.123617 nspr-2     no domain set
00:00:00.123618 nspr-2     no search string entries
00:00:00.123619 nspr-2   HostDnsMonitor: new information
00:00:00.123620 nspr-2     server 1: 75.75.75.75
00:00:00.123621 nspr-2     server 2: 75.75.76.76
00:00:00.123622 nspr-2     server 3: 2001:558:feed::1
00:00:00.123623 nspr-2     domain: hsd1.wa.comcast.net
00:00:00.123624 nspr-2     search string 1: hsd1.wa.comcast.net
00:00:00.125549 nspr-2   Failed to open "/dev/vboxdrvu", errno=2, rc=VERR_VM_DRIVER_NOT_INSTALLED
00:00:00.126972 nspr-2   VD: VDInit finished with VINF_SUCCESS
00:00:00.127498 nspr-2   ERROR [COM]: aRC=NS_ERROR_FAILURE (0x80004005) aIID={027bc463-929c-40e8-bf16-fea557cd8e7e} aComponent={SystemPropertiesWrap} aText={Cannot determine default Guest Additions ISO location. Most likely they are not available}, preserve=false aResultDetail=0
00:00:00.132078 nspr-2   Loading settings file "/home/mariah/VirtualBox VMs/android/android.vbox" with version "1.16-linux"
00:00:00.132860 nspr-2   VirtualBox: object created
00:00:00.468622 nspr-3   WARNING [COM]: aRC=NS_ERROR_FAILURE (0x80004005) aIID={16ced992-5fdc-4aba-aff5-6a39bbd7c38b} aComponent={HostWrap} aText={VirtualBox is not currently allowed to access USB devices.  You can change this by adding your user to the 'vboxusers' group.  Please see the user manual for a more detailed explanation}, preserve=true  aResultDetail=0
00:00:00.497954 nspr-4   Failed to open "/dev/vboxdrvu", errno=2, rc=VERR_VM_DRIVER_NOT_INSTALLED
00:00:00.594464 nspr-3   WARNING [COM]: aRC=NS_ERROR_FAILURE (0x80004005) aIID={16ced992-5fdc-4aba-aff5-6a39bbd7c38b} aComponent={HostWrap} aText={VirtualBox is not currently allowed to access USB devices.  You can change this by adding your user to the 'vboxusers' group.  Please see the user manual for a more detailed explanation}, preserve=true  aResultDetail=0
00:00:00.594845 nspr-3   WARNING [COM]: aRC=NS_ERROR_FAILURE (0x80004005) aIID={16ced992-5fdc-4aba-aff5-6a39bbd7c38b} aComponent={HostWrap} aText={VirtualBox is not currently allowed to access USB devices.  You can change this by adding your user to the 'vboxusers' group.  Please see the user manual for a more detailed explanation}, preserve=true  aResultDetail=0
00:00:11.607481 nspr-2   Launched VM: 3355451392 pid: 2507 (0x9cb) frontend: GUI/Qt name: android
00:00:11.623439 nspr-3   Failed to open "/dev/vboxdrvu", errno=2, rc=VERR_VM_DRIVER_NOT_INSTALLED
00:00:11.634637 nspr-3   WARNING [COM]: aRC=NS_ERROR_FAILURE (0x80004005) aIID={16ced992-5fdc-4aba-aff5-6a39bbd7c38b} aComponent={HostWrap} aText={VirtualBox is not currently allowed to access USB devices.  You can change this by adding your user to the 'vboxusers' group.  Please see the user manual for a more detailed explanation}, preserve=true  aResultDetail=0
00:00:11.635069 nspr-3   WARNING [COM]: aRC=NS_ERROR_FAILURE (0x80004005) aIID={16ced992-5fdc-4aba-aff5-6a39bbd7c38b} aComponent={HostWrap} aText={VirtualBox is not currently allowed to access USB devices.  You can change this by adding your user to the 'vboxusers' group.  Please see the user manual for a more detailed explanation}, preserve=true  aResultDetail=0
00:00:12.108403 Watcher  ERROR [COM]: aRC=NS_ERROR_FAILURE (0x80004005) aIID={85632c68-b5bb-4316-a900-5eb28d3413df} aComponent={MachineWrap} aText={The virtual machine 'android' has terminated unexpectedly during startup with exit code 1 (0x1)}, preserve=false aResultDetail=0
00:00:12.636655 nspr-2   Failed to open "/dev/vboxdrvu", errno=2, rc=VERR_VM_DRIVER_NOT_INSTALLED
00:00:12.658703 nspr-4   WARNING [COM]: aRC=NS_ERROR_FAILURE (0x80004005) aIID={16ced992-5fdc-4aba-aff5-6a39bbd7c38b} aComponent={HostWrap} aText={VirtualBox is not currently allowed to access USB devices.  You can change this by adding your user to the 'vboxusers' group.  Please see the user manual for a more detailed explanation}, preserve=true  aResultDetail=0
00:00:12.659051 nspr-4   WARNING [COM]: aRC=NS_ERROR_FAILURE (0x80004005) aIID={16ced992-5fdc-4aba-aff5-6a39bbd7c38b} aComponent={HostWrap} aText={VirtualBox is not currently allowed to access USB devices.  You can change this by adding your user to the 'vboxusers' group.  Please see the user manual for a more detailed explanation}, preserve=true  aResultDetail=0
00:00:36.965489 nspr-2   Saving settings file "/home/mariah/.config/VirtualBox/VirtualBox.xml" with version "1.12-linux"
00:00:36.970314 nspr-3   Saving settings file "/home/mariah/.config/VirtualBox/VirtualBox.xml" with version "1.12-linux"
00:00:42.480831 main     VirtualBox: object deletion starts
00:00:42.480933 main     ERROR [COM]: aRC=VBOX_E_OBJECT_IN_USE (0x80bb000c) aIID={ad47ad09-787b-44ab-b343-a082a3f2dfb1} aComponent={MediumWrap} aText={Medium '/home/mariah/VirtualBox VMs/android/android.vdi' cannot be closed because it is still attached to 1 virtual machines}, preserve=false aResultDetail=0
00:00:42.481756 main     HostDnsMonitor: shutting down ...
00:00:42.482193 main     HostDnsMonitor: shut down
00:00:42.615842 Watcher  ERROR [COM]: aRC=E_ACCESSDENIED (0x80070005) aIID={d0a0163f-e254-4e5b-a1f2-011cf991c38d} aComponent={VirtualBoxWrap} aText={The object is not ready}, preserve=false aResultDetail=0
00:00:47.482406 main     {00007fe8cc019750} HostPowerServiceLinux::~HostPowerServiceLinux: RTThreadWait() for 5000 ms failed with VERR_TIMEOUT
00:00:47.483060 main     VirtualBox: object deleted
