00:00:00.000139 main     VirtualBox XPCOM Server 6.1.36 r152435 linux.amd64 (Jul 21 2022 10:08:57) release log
00:00:00.000141 main     Log opened 2022-08-15T01:44:53.285175000Z
00:00:00.000141 main     Build Type: release
00:00:00.000142 main     OS Product: Linux
00:00:00.000142 main     OS Release: 5.19.1-arch2-1
00:00:00.000142 main     OS Version: #1 SMP PREEMPT_DYNAMIC Thu, 11 Aug 2022 16:06:13 +0000
00:00:00.000153 main     DMI Product Name: Z590 UD AC
00:00:00.000156 main     DMI Product Version: Default string
00:00:00.000158 main     Firmware type: UEFI
00:00:00.000309 main     Secure Boot: Disabled
00:00:00.000325 main     Host RAM: 64178MB (62.6GB) total, 60661MB (59.2GB) available
00:00:00.000327 main     Executable: /usr/lib/virtualbox/VBoxSVC
00:00:00.000327 main     Process ID: 133578
00:00:00.000327 main     Package type: LINUX_64BITS_GENERIC (OSE)
00:00:00.001036 main     IPC socket path: /tmp/.vbox-mariah-ipc/ipcd
00:00:00.105019 nspr-2   VirtualBox: object creation starts
00:00:00.105183 nspr-2   Home directory: '/home/mariah/.config/VirtualBox'
00:00:00.105507 nspr-2   Loading settings file "/home/mariah/.config/VirtualBox/VirtualBox.xml" with version "1.12-linux"
00:00:00.114684 nspr-2   HostDnsMonitor: initializing
00:00:00.114768 nspr-2   NAT: resolv.conf: nameserver 75.75.75.75
00:00:00.114776 nspr-2   NAT: resolv.conf: nameserver 75.75.76.76
00:00:00.114779 nspr-2   NAT: resolv.conf: nameserver 2001:558:feed::1
00:00:00.114781 nspr-2   NAT: resolv.conf: too many nameserver lines, ignoring 2001:558:feed::2
00:00:00.114782 nspr-2   NAT: resolv.conf: too many nameserver lines, ignoring 2601:602:c900:ee00:fa79:aff:fe4e:22a2
00:00:00.114786 nspr-2   HostDnsMonitor: updating information
00:00:00.114793 nspr-2   HostDnsMonitor: old information
00:00:00.114794 nspr-2     no server entries
00:00:00.114796 nspr-2     no domain set
00:00:00.114797 nspr-2     no search string entries
00:00:00.114798 nspr-2   HostDnsMonitor: new information
00:00:00.114799 nspr-2     server 1: 75.75.75.75
00:00:00.114800 nspr-2     server 2: 75.75.76.76
00:00:00.114801 nspr-2     server 3: 2001:558:feed::1
00:00:00.114802 nspr-2     domain: hsd1.wa.comcast.net
00:00:00.114803 nspr-2     search string 1: hsd1.wa.comcast.net
00:00:00.116069 nspr-2   Failed to open "/dev/vboxdrvu", errno=2, rc=VERR_VM_DRIVER_NOT_INSTALLED
00:00:00.116158 nspr-2   VD: VDInit finished with VINF_SUCCESS
00:00:00.116195 nspr-2   ERROR [COM]: aRC=NS_ERROR_FAILURE (0x80004005) aIID={027bc463-929c-40e8-bf16-fea557cd8e7e} aComponent={SystemPropertiesWrap} aText={Cannot determine default Guest Additions ISO location. Most likely they are not available}, preserve=false aResultDetail=0
00:00:00.116432 nspr-2   VirtualBox: object created
00:00:10.207090 nspr-2   Failed to open "/dev/vboxdrvu", errno=2, rc=VERR_VM_DRIVER_NOT_INSTALLED
00:00:10.210033 nspr-2   Failed to open "/dev/vboxdrvu", errno=2, rc=VERR_VM_DRIVER_NOT_INSTALLED
00:02:18.816521 createBase Saving settings file "/home/mariah/.config/VirtualBox/VirtualBox.xml" with version "1.12-linux"
00:02:19.349766 nspr-4   Saving settings file "/home/mariah/VirtualBox VMs/android/android.vbox" with version "1.16-linux"
00:02:19.357615 nspr-3   WARNING [COM]: aRC=NS_ERROR_FAILURE (0x80004005) aIID={16ced992-5fdc-4aba-aff5-6a39bbd7c38b} aComponent={HostWrap} aText={Could not load the Host USB Proxy service: VERR_NOT_FOUND}, preserve=true  aResultDetail=0
00:02:19.357965 nspr-4   Saving settings file "/home/mariah/VirtualBox VMs/android/android.vbox" with version "1.16-linux"
00:02:19.362584 nspr-4   Saving settings file "/home/mariah/.config/VirtualBox/VirtualBox.xml" with version "1.12-linux"
00:02:19.368315 nspr-4   Saving settings file "/home/mariah/.config/VirtualBox/VirtualBox.xml" with version "1.12-linux"
00:02:19.373735 nspr-4   Saving settings file "/home/mariah/VirtualBox VMs/android/android.vbox" with version "1.16-linux"
00:02:19.770817 nspr-3   WARNING [COM]: aRC=NS_ERROR_FAILURE (0x80004005) aIID={16ced992-5fdc-4aba-aff5-6a39bbd7c38b} aComponent={HostWrap} aText={Could not load the Host USB Proxy service: VERR_NOT_FOUND}, preserve=true  aResultDetail=0
00:02:19.787463 nspr-3   Failed to open "/dev/vboxdrvu", errno=2, rc=VERR_VM_DRIVER_NOT_INSTALLED
00:02:19.886961 nspr-3   WARNING [COM]: aRC=NS_ERROR_FAILURE (0x80004005) aIID={16ced992-5fdc-4aba-aff5-6a39bbd7c38b} aComponent={HostWrap} aText={Could not load the Host USB Proxy service: VERR_NOT_FOUND}, preserve=true  aResultDetail=0
00:02:19.887352 nspr-3   WARNING [COM]: aRC=NS_ERROR_FAILURE (0x80004005) aIID={16ced992-5fdc-4aba-aff5-6a39bbd7c38b} aComponent={HostWrap} aText={Could not load the Host USB Proxy service: VERR_NOT_FOUND}, preserve=true  aResultDetail=0
00:04:40.472409 nspr-4   Saving settings file "/home/mariah/.config/VirtualBox/VirtualBox.xml" with version "1.12-linux"
00:04:40.477011 nspr-4   Saving settings file "/home/mariah/.config/VirtualBox/VirtualBox.xml" with version "1.12-linux"
00:04:40.481646 nspr-3   Saving settings file "/home/mariah/VirtualBox VMs/android/android.vbox" with version "1.16-linux"
00:04:40.486517 nspr-3   Saving settings file "/home/mariah/VirtualBox VMs/android/android.vbox" with version "1.16-linux"
00:04:40.511956 nspr-4   Failed to open "/dev/vboxdrvu", errno=2, rc=VERR_VM_DRIVER_NOT_INSTALLED
00:04:40.522618 nspr-3   WARNING [COM]: aRC=NS_ERROR_FAILURE (0x80004005) aIID={16ced992-5fdc-4aba-aff5-6a39bbd7c38b} aComponent={HostWrap} aText={Could not load the Host USB Proxy service: VERR_NOT_FOUND}, preserve=true  aResultDetail=0
00:04:40.522980 nspr-3   WARNING [COM]: aRC=NS_ERROR_FAILURE (0x80004005) aIID={16ced992-5fdc-4aba-aff5-6a39bbd7c38b} aComponent={HostWrap} aText={Could not load the Host USB Proxy service: VERR_NOT_FOUND}, preserve=true  aResultDetail=0
00:04:54.541912 nspr-2   Launched VM: 1946780864 pid: 138004 (0x21b14) frontend: GUI/Qt name: android
00:04:54.556326 nspr-4   Failed to open "/dev/vboxdrvu", errno=2, rc=VERR_VM_DRIVER_NOT_INSTALLED
00:04:54.567056 nspr-4   WARNING [COM]: aRC=NS_ERROR_FAILURE (0x80004005) aIID={16ced992-5fdc-4aba-aff5-6a39bbd7c38b} aComponent={HostWrap} aText={Could not load the Host USB Proxy service: VERR_NOT_FOUND}, preserve=true  aResultDetail=0
00:04:54.567527 nspr-4   WARNING [COM]: aRC=NS_ERROR_FAILURE (0x80004005) aIID={16ced992-5fdc-4aba-aff5-6a39bbd7c38b} aComponent={HostWrap} aText={Could not load the Host USB Proxy service: VERR_NOT_FOUND}, preserve=true  aResultDetail=0
00:04:55.042897 Watcher  ERROR [COM]: aRC=NS_ERROR_FAILURE (0x80004005) aIID={85632c68-b5bb-4316-a900-5eb28d3413df} aComponent={MachineWrap} aText={The virtual machine 'android' has terminated unexpectedly during startup with exit code 1 (0x1)}, preserve=false aResultDetail=0
00:04:55.601100 nspr-2   Failed to open "/dev/vboxdrvu", errno=2, rc=VERR_VM_DRIVER_NOT_INSTALLED
00:04:55.614633 nspr-3   WARNING [COM]: aRC=NS_ERROR_FAILURE (0x80004005) aIID={16ced992-5fdc-4aba-aff5-6a39bbd7c38b} aComponent={HostWrap} aText={Could not load the Host USB Proxy service: VERR_NOT_FOUND}, preserve=true  aResultDetail=0
00:04:55.615216 nspr-3   WARNING [COM]: aRC=NS_ERROR_FAILURE (0x80004005) aIID={16ced992-5fdc-4aba-aff5-6a39bbd7c38b} aComponent={HostWrap} aText={Could not load the Host USB Proxy service: VERR_NOT_FOUND}, preserve=true  aResultDetail=0
00:06:22.297347 nspr-2   Saving settings file "/home/mariah/.config/VirtualBox/VirtualBox.xml" with version "1.12-linux"
00:06:22.304675 nspr-4   Saving settings file "/home/mariah/.config/VirtualBox/VirtualBox.xml" with version "1.12-linux"
00:06:22.308851 nspr-3   Saving settings file "/home/mariah/.config/VirtualBox/VirtualBox.xml" with version "1.12-linux"
00:06:27.824211 main     VirtualBox: object deletion starts
00:06:27.824241 main     ERROR [COM]: aRC=VBOX_E_OBJECT_IN_USE (0x80bb000c) aIID={ad47ad09-787b-44ab-b343-a082a3f2dfb1} aComponent={MediumWrap} aText={Medium '/home/mariah/VirtualBox VMs/android/android.vdi' cannot be closed because it is still attached to 1 virtual machines}, preserve=false aResultDetail=0
00:06:27.824422 main     HostDnsMonitor: shutting down ...
00:06:27.824504 main     HostDnsMonitor: shut down
00:06:28.066798 Watcher  ERROR [COM]: aRC=E_ACCESSDENIED (0x80070005) aIID={d0a0163f-e254-4e5b-a1f2-011cf991c38d} aComponent={VirtualBoxWrap} aText={The object is not ready}, preserve=false aResultDetail=0
00:06:32.824645 main     {00007f1e74019160} HostPowerServiceLinux::~HostPowerServiceLinux: RTThreadWait() for 5000 ms failed with VERR_TIMEOUT
00:06:32.825251 main     VirtualBox: object deleted
