{
  "version": 16,
  "user": "296dcdf7-d09b-4765-95c8-7ee24d29048b",
  "wizard": {
    "welcome": true,
    "tos": true,
    "user": false,
    "telemetry": true,
    "waifu": false,
    "settings": true
  },
  "achievements": {
    "badtime": false
  },
  "app": {
    "hardwareAcceleration": true,
    "uploadMode": "none",
    "queuePosition": "right",
    "duplicates": false,
    "showAds": false,
    "showTips": false,
    "showStats": false,
    "trypophobiaMode": false,
    "resultsColumns": "auto",
    "window": {
      "width": 1200,
      "height": 700,
      "maximized": true
    }
  },
  "notifications": {
    "run": false,
    "allRuns": true,
    "update": true
  },
  "folders": {
    "cropped": "/home/mariah/Documents/DreamTime/tmp",
    "models": "/home/mariah/Pictures/DreamTime",
    "cli": "/home/mariah/Documents/DreamTime/dreampower",
    "waifu": "/home/mariah/Documents/DreamTime/waifu2x"
  },
  "telemetry": {
    "bugs": false,
    "dom": false
  },
  "processing": {
    "gpus": [
      0
    ],
    "cores": 1
  },
  "preferences": {
    "body": {
      "runs": {
        "mode": false,
        "count": 2,
        "rate": 0.1
      },
      "boobs": {
        "size": 1,
        "randomize": {
          "enabled": true,
          "min": 0.3,
          "max": 2
        },
        "progressive": true
      },
      "areola": {
        "size": 1,
        "randomize": {
          "enabled": true,
          "min": 0.3,
          "max": 2
        },
        "progressive": true
      },
      "nipple": {
        "size": 1,
        "randomize": {
          "enabled": true,
          "min": 0.3,
          "max": 2
        },
        "progressive": true
      },
      "vagina": {
        "size": 0.75,
        "randomize": {
          "enabled": true,
          "min": 0.3,
          "max": 1.5
        },
        "progressive": true
      },
      "pubicHair": {
        "size": 1,
        "randomize": {
          "enabled": true,
          "min": 0,
          "max": 2
        },
        "progressive": true
      }
    },
    "advanced": {
      "device": "CPU",
      "scaleMode": "cropjs",
      "useColorTransfer": false,
      "useColorPaddingStrip": true,
      "useArtifactsInpaint": false,
      "useClothTransparencyEffect": false,
      "compress": 0,
      "imageSize": 512,
      "waifu": {
        "enabled": false,
        "scale": 2,
        "denoise": 1,
        "tta": 0,
        "arch": 0
      }
    },
    "mode": 2
  }
}
