{
  "app_name": "4fec3df59df9406c9a243d40fbd7bdfb",
  "app_title": "Schnellfahrstrecke K\u00f6ln-Aachen",
  "asset_infos": {
    "Windows": {
      "app_name": "4fec3df59df9406c9a243d40fbd7bdfb",
      "asset_id": "4fec3df59df9406c9a243d40fbd7bdfb",
      "build_version": "1.0.2",
      "catalog_item_id": "3fde4f4763284f4b9917f9291fdae7ac",
      "label_name": "Live-Windows",
      "metadata": {
        "installationPoolId": "685efdfa4bf34ae1be3751c722a70548"
      },
      "namespace": "a64d4c5460384218b17de5bd785085f8"
    }
  },
  "base_urls": [],
  "metadata": {
    "ageGatings": {},
    "applicationId": "",
    "categories": [
      {
        "path": "addons"
      }
    ],
    "creationDate": "2022-06-23T13:43:17.026Z",
    "customAttributes": {
      "CanRunOffline": {
        "type": "STRING",
        "value": "true"
      }
    },
    "description": "Schnellfahrstrecke K\u00f6ln-Aachen",
    "developer": "Dovetail Games",
    "developerId": "o-hsu3hatj83tj7fpcykxyf7tn6ypg3e",
    "endOfSupport": false,
    "entitlementName": "3fde4f4763284f4b9917f9291fdae7ac",
    "entitlementType": "EXECUTABLE",
    "eulaIds": [
      "egstore"
    ],
    "id": "3fde4f4763284f4b9917f9291fdae7ac",
    "itemType": "DURABLE",
    "keyImages": [
      {
        "height": 1440,
        "md5": "83fa89e62916af8a7d6b630c59a7c939",
        "size": 598198,
        "type": "DieselGameBox",
        "uploadedDate": "2022-09-07T15:36:52.455Z",
        "url": "https://cdn1.epicgames.com/item/a64d4c5460384218b17de5bd785085f8/EGS_SchnellfahrstreckeKlnAachen_DovetailGames_DLC_S1_2560x1440-83fa89e62916af8a7d6b630c59a7c939",
        "width": 2560
      },
      {
        "height": 1600,
        "md5": "646e06c6631a6bb71f7178cef4769d1c",
        "size": 815735,
        "type": "DieselGameBoxTall",
        "uploadedDate": "2022-09-07T15:36:48.896Z",
        "url": "https://cdn1.epicgames.com/item/a64d4c5460384218b17de5bd785085f8/EGS_SchnellfahrstreckeKlnAachen_DovetailGames_DLC_S2_1200x1600-646e06c6631a6bb71f7178cef4769d1c",
        "width": 1200
      }
    ],
    "lastModifiedDate": "2022-11-22T14:33:56.347Z",
    "mainGameItem": {
      "ageGatings": {},
      "applicationId": "",
      "categories": [
        {
          "path": "public"
        },
        {
          "path": "games"
        },
        {
          "path": "applications"
        }
      ],
      "creationDate": "2022-06-23T08:08:15.335Z",
      "customAttributes": {
        "CanRunOffline": {
          "type": "STRING",
          "value": "true"
        },
        "CanSkipKoreanIdVerification": {
          "type": "STRING",
          "value": "true"
        },
        "FolderName": {
          "type": "STRING",
          "value": "TrainSimWorld3"
        },
        "OwnershipToken": {
          "type": "STRING",
          "value": "true"
        },
        "RequirementsJson": {
          "type": "STRING",
          "value": "[]"
        },
        "UseAccessControl": {
          "type": "STRING",
          "value": "false"
        }
      },
      "description": "Train Sim World 3",
      "developer": "Dovetail Games",
      "developerId": "o-hsu3hatj83tj7fpcykxyf7tn6ypg3e",
      "endOfSupport": false,
      "entitlementName": "16268e7a56184fada899a673ab14260a",
      "entitlementType": "EXECUTABLE",
      "eulaIds": [
        "egstore"
      ],
      "id": "16268e7a56184fada899a673ab14260a",
      "itemType": "DURABLE",
      "keyImages": [
        {
          "height": 1440,
          "md5": "cd4682759f9c18199fb2660a1527cb52",
          "size": 603063,
          "type": "DieselGameBox",
          "uploadedDate": "2022-08-31T16:24:07.060Z",
          "url": "https://cdn1.epicgames.com/item/a64d4c5460384218b17de5bd785085f8/TSW3_Epic_Store_Assets_Landscape_Image_2560x1440_2560x1440-cd4682759f9c18199fb2660a1527cb52",
          "width": 2560
        },
        {
          "height": 1600,
          "md5": "eb5e7622ddf8d9d64c234c1bb197785f",
          "size": 354579,
          "type": "DieselGameBoxTall",
          "uploadedDate": "2022-08-31T16:24:13.779Z",
          "url": "https://cdn1.epicgames.com/item/a64d4c5460384218b17de5bd785085f8/TSW3_Epic_Store_Assets_Portrait_Image_1200x1600_1200x1600-eb5e7622ddf8d9d64c234c1bb197785f",
          "width": 1200
        }
      ],
      "lastModifiedDate": "2023-01-31T15:51:31.966Z",
      "namespace": "a64d4c5460384218b17de5bd785085f8",
      "releaseInfo": [
        {
          "appId": "45e0536c956a401ab1010194fd1ab504",
          "compatibleApps": [],
          "dateAdded": "2022-07-22T18:37:49.527Z",
          "id": "729e0664e8f549c5945cbab2621dcd0a",
          "platform": [
            "Windows"
          ]
        }
      ],
      "requiresSecureAccount": false,
      "status": "ACTIVE",
      "title": "Train Sim World 3",
      "unsearchable": true
    },
    "namespace": "a64d4c5460384218b17de5bd785085f8",
    "releaseInfo": [
      {
        "appId": "4fec3df59df9406c9a243d40fbd7bdfb",
        "id": "799166990ccf4859bd1e3c8b5d3329ca",
        "platform": [
          "Windows"
        ]
      }
    ],
    "requiresSecureAccount": false,
    "status": "ACTIVE",
    "title": "Schnellfahrstrecke K\u00f6ln-Aachen",
    "unsearchable": true
  }
}