19:04:30.357: CPU Name: Intel(R) Core(TM) i9-10900K CPU @ 3.70GHz
19:04:30.357: CPU Speed: 3700.000MHz
19:04:30.358: Physical Cores: 10, Logical Cores: 20
19:04:30.358: Physical Memory: 64178MB Total, 58857MB Free
19:04:30.358: Kernel Version: Linux 5.18.14-arch1-1
19:04:30.358: Distribution: "Arch Linux" Unknown
19:04:30.358: Session Type: x11
19:04:30.358: Window System: X11.0, Vendor: The X.Org Foundation, Version: 1.21.1
19:04:30.358: Qt Version: 5.15.5 (runtime), 5.15.5 (compiled)
19:04:30.358: Portable mode: false
19:04:30.399: OBS 27.2.4-2 (linux)
19:04:30.399: ---------------------------------
19:04:30.400: ---------------------------------
19:04:30.400: audio settings reset:
19:04:30.400: 	samples per sec: 48000
19:04:30.400: 	speakers:        2
19:04:30.401: ---------------------------------
19:04:30.401: Initializing OpenGL...
19:04:30.493: Loading up OpenGL on adapter NVIDIA Corporation NVIDIA GeForce RTX 3090/PCIe/SSE2
19:04:30.493: OpenGL loaded successfully, version 3.3.0 NVIDIA 515.57, shading language 3.30 NVIDIA via Cg compiler
19:04:30.540: ---------------------------------
19:04:30.540: video settings reset:
19:04:30.540: 	base resolution:   1920x1080
19:04:30.540: 	output resolution: 1280x720
19:04:30.540: 	downscale filter:  Bicubic
19:04:30.540: 	fps:               30/1
19:04:30.540: 	format:            NV12
19:04:30.540: 	YUV mode:          709/Partial
19:04:30.540: NV12 texture support not available
19:04:30.540: Audio monitoring device:
19:04:30.540: 	name: Default
19:04:30.540: 	id: default
19:04:30.540: ---------------------------------
19:04:30.541: Failed to load 'en-US' text for module: 'decklink-captions.so'
19:04:30.542: Failed to load 'en-US' text for module: 'decklink-ouput-ui.so'
19:04:30.603: A DeckLink iterator could not be created.  The DeckLink drivers may not be installed
19:04:30.603: No blackmagic support
19:04:30.610: v4l2loopback not installed, virtual camera disabled
19:04:30.620: NVENC supported
19:04:30.620: FFMPEG VAAPI supported
19:04:30.636: os_dlopen(/usr//lib/obs-plugins/sndio.so->/usr//lib/obs-plugins/sndio.so): libsndio.so.7: cannot open shared object file: No such file or directory
19:04:30.636: 
19:04:30.636: Module '/usr//lib/obs-plugins/sndio.so' not loaded
19:04:30.638: ---------------------------------
19:04:30.638:   Loaded Modules:
19:04:30.638:     text-freetype2.so
19:04:30.638:     rtmp-services.so
19:04:30.638:     obs-x264.so
19:04:30.638:     obs-transitions.so
19:04:30.638:     obs-outputs.so
19:04:30.638:     obs-libfdk.so
19:04:30.638:     obs-filters.so
19:04:30.638:     obs-ffmpeg.so
19:04:30.638:     linux-v4l2.so
19:04:30.638:     linux-pulseaudio.so
19:04:30.638:     linux-jack.so
19:04:30.638:     linux-decklink.so
19:04:30.638:     linux-capture.so
19:04:30.638:     linux-alsa.so
19:04:30.638:     image-source.so
19:04:30.638:     frontend-tools.so
19:04:30.638:     decklink-ouput-ui.so
19:04:30.638:     decklink-captions.so
19:04:30.638: ---------------------------------
19:04:30.638: ==== Startup complete ===============================================
19:04:30.642: No scene file found, creating default scene
19:04:30.696: All scene data cleared
19:04:30.696: ------------------------------------------------
19:04:30.711: pulse-input: Server name: 'pulseaudio 16.1'
19:04:30.712: pulse-input: Audio format: s16le, 48000 Hz, 2 channels
19:04:30.712: pulse-input: Started recording from 'alsa_output.usb-OROW_OROW_S203_20180508-00.iec958-stereo.monitor'
19:04:30.713: Switched to scene 'Scene'
19:04:30.713: Failed to glob scene collections
19:04:31.016: [rtmp-services plugin] Successfully updated file 'services.json' (version 201)
19:04:31.016: [rtmp-services plugin] Successfully updated package (version 201)
19:05:13.265: 
19:05:13.265: ==== Auto-config wizard testing commencing ======

19:05:23.394: ---------------------------------
19:05:23.394: video settings reset:
19:05:23.394: 	base resolution:   1920x1080
19:05:23.394: 	output resolution: 1920x1080
19:05:23.394: 	downscale filter:  Bicubic
19:05:23.394: 	fps:               60/1
19:05:23.394: 	format:            NV12
19:05:23.394: 	YUV mode:          709/Partial
19:05:23.394: NV12 texture support not available
19:05:23.395: 
19:05:23.395: ==== Auto-config wizard testing stopping ========

19:06:03.146: pulse-input: Server name: 'pulseaudio 16.1'
19:06:03.147: pulse-input: Audio format: s16le, 48000 Hz, 2 channels
19:06:03.147: pulse-input: Started recording from 'alsa_output.usb-OROW_OROW_S203_20180508-00.iec958-stereo.monitor'
19:06:03.153: User added source 'Audio Input Capture (PulseAudio)' (pulse_input_capture) to scene 'Scene'
19:06:03.180: pulse-input: Stopped recording from 'default'
19:06:03.180: pulse-input: Got 2 packets with 480 frames
19:06:03.180: pulse-input: Server name: 'pulseaudio 16.1'
19:06:03.180: pulse-input: Audio format: s16le, 48000 Hz, 2 channels
19:06:03.180: pulse-input: Started recording from 'alsa_output.usb-OROW_OROW_S203_20180508-00.iec958-stereo.monitor'
19:06:19.773: pulse-input: Stopped recording from 'default'
19:06:19.773: pulse-input: Got 3281 packets with 795216 frames
19:06:19.773: pulse-input: Server name: 'pulseaudio 16.1'
19:06:19.774: pulse-input: Audio format: s16le, 48000 Hz, 2 channels
19:06:19.774: pulse-input: Started recording from 'alsa_output.usb-OROW_OROW_S203_20180508-00.iec958-stereo.monitor'
19:06:20.345: adding 42 milliseconds of audio buffering, total audio buffering is now 42 milliseconds (source: Audio Input Capture (PulseAudio))
19:06:20.345: 
19:06:33.705: User Removed source 'Audio Input Capture (PulseAudio)' (pulse_input_capture) from scene 'Scene'
19:06:33.711: pulse-input: Stopped recording from 'alsa_output.usb-OROW_OROW_S203_20180508-00.iec958-stereo.monitor'
19:06:33.711: pulse-input: Got 2758 packets with 667728 frames
19:06:55.814: pulse-input: Server name: 'pulseaudio 16.1'
19:06:55.815: pulse-input: Audio format: s16le, 48000 Hz, 2 channels
19:06:55.816: pulse-input: Started recording from 'alsa_output.usb-OROW_OROW_S203_20180508-00.iec958-stereo.monitor'
19:06:55.821: User added source 'Audio Output Capture (PulseAudio)' (pulse_output_capture) to scene 'Scene'
19:07:34.820: xshm-input: Geometry 3840x2160 @ 0,0
19:07:34.823: User added source 'Screen Capture (XSHM)' (xshm_input) to scene 'Scene'
19:08:37.591: ---------------------------------
19:08:37.591: video settings reset:
19:08:37.591: 	base resolution:   3840x2160
19:08:37.591: 	output resolution: 3840x2160
19:08:37.591: 	downscale filter:  Bicubic
19:08:37.591: 	fps:               60/1
19:08:37.591: 	format:            NV12
19:08:37.591: 	YUV mode:          709/Partial
19:08:37.591: NV12 texture support not available
19:09:10.390: ---------------------------------
19:09:10.391: [NVENC encoder: 'simple_h264_recording'] settings:
19:09:10.391: 	rate_control: CQP
19:09:10.391: 	bitrate:      0
19:09:10.391: 	cqp:          23
19:09:10.391: 	keyint:       250
19:09:10.391: 	preset:       hq
19:09:10.391: 	profile:      high
19:09:10.391: 	width:        3840
19:09:10.391: 	height:       2160
19:09:10.391: 	2-pass:       false
19:09:10.391: 	b-frames:     2
19:09:10.391: 	psycho-aq:    1
19:09:10.391: 	GPU:          0
19:09:10.391: 
19:09:10.841: libfdk_aac encoder created
19:09:10.841: libfdk_aac bitrate: 192, channels: 2
19:09:10.844: ==== Recording Start ===============================================
19:09:10.844: [ffmpeg muxer: 'simple_file_output'] Writing file '/home/mariah/2022-07-28 19-09-10.mkv'...
19:11:18.472: [ffmpeg muxer: 'simple_file_output'] Output of file '/home/mariah/2022-07-28 19-09-10.mkv' stopped
19:11:18.472: Output 'simple_file_output': stopping
19:11:18.472: Output 'simple_file_output': Total frames output: 7506
19:11:18.472: Output 'simple_file_output': Total drawn frames: 7162 (7657 attempted)
19:11:18.472: Output 'simple_file_output': Number of lagged frames due to rendering lag/stalls: 495 (6.5%)
19:11:18.472: ==== Recording Stop ================================================
19:11:20.112: Video stopped, number of skipped frames due to encoding lag: 6030/7638 (78.9%)
19:11:20.814: libfdk_aac encoder destroyed
19:11:21.684: ---------------------------------
19:11:21.684: [NVENC encoder: 'simple_h264_recording'] settings:
19:11:21.684: 	rate_control: CQP
19:11:21.684: 	bitrate:      0
19:11:21.684: 	cqp:          23
19:11:21.684: 	keyint:       250
19:11:21.684: 	preset:       hq
19:11:21.684: 	profile:      high
19:11:21.684: 	width:        3840
19:11:21.684: 	height:       2160
19:11:21.684: 	2-pass:       false
19:11:21.684: 	b-frames:     2
19:11:21.684: 	psycho-aq:    1
19:11:21.684: 	GPU:          0
19:11:21.684: 
19:11:22.041: libfdk_aac encoder created
19:11:22.042: libfdk_aac bitrate: 192, channels: 2
19:11:22.044: ==== Recording Start ===============================================
19:11:22.044: [ffmpeg muxer: 'simple_file_output'] Writing file '/home/mariah/2022-07-28 19-11-21.mkv'...
19:16:09.522: [ffmpeg muxer: 'simple_file_output'] Output of file '/home/mariah/2022-07-28 19-11-21.mkv' stopped
19:16:09.522: Output 'simple_file_output': stopping
19:16:09.522: Output 'simple_file_output': Total frames output: 16675
19:16:09.522: Output 'simple_file_output': Total drawn frames: 17129 (17248 attempted)
19:16:09.522: Output 'simple_file_output': Number of lagged frames due to rendering lag/stalls: 119 (0.7%)
19:16:09.522: ==== Recording Stop ================================================
19:16:10.423: Video stopped, number of skipped frames due to encoding lag: 15416/16763 (92.0%)
19:16:11.079: libfdk_aac encoder destroyed
19:17:35.453: Settings changed (outputs)
19:17:35.453: ------------------------------------------------
19:17:42.500: ---------------------------------
19:17:42.500: [NVENC encoder: 'simple_h264_recording'] settings:
19:17:42.500: 	rate_control: CQP
19:17:42.500: 	bitrate:      0
19:17:42.500: 	cqp:          23
19:17:42.500: 	keyint:       250
19:17:42.500: 	preset:       hq
19:17:42.500: 	profile:      high
19:17:42.500: 	width:        3840
19:17:42.500: 	height:       2160
19:17:42.500: 	2-pass:       false
19:17:42.500: 	b-frames:     2
19:17:42.500: 	psycho-aq:    1
19:17:42.500: 	GPU:          0
19:17:42.500: 
19:17:42.850: libfdk_aac encoder created
19:17:42.850: libfdk_aac bitrate: 192, channels: 2
19:17:42.852: ==== Recording Start ===============================================
19:17:42.852: [ffmpeg muxer: 'simple_file_output'] Writing file '/home/mariah/Videos/2022-07-28 19-17-42.mp4'...
19:21:23.304: [ffmpeg muxer: 'simple_file_output'] Output of file '/home/mariah/Videos/2022-07-28 19-17-42.mp4' stopped
19:21:23.304: Output 'simple_file_output': stopping
19:21:23.304: Output 'simple_file_output': Total frames output: 12664
19:21:23.304: Output 'simple_file_output': Total drawn frames: 13207 (13227 attempted)
19:21:23.304: Output 'simple_file_output': Number of lagged frames due to rendering lag/stalls: 20 (0.2%)
19:21:23.304: ==== Recording Stop ================================================
19:21:23.996: Video stopped, number of skipped frames due to encoding lag: 12029/12740 (94.4%)
19:21:24.653: libfdk_aac encoder destroyed
19:22:00.570: ==== Shutting down ==================================================
19:22:00.590: pulse-input: Stopped recording from 'alsa_output.usb-OROW_OROW_S203_20180508-00.iec958-stereo.monitor'
19:22:00.590: pulse-input: Got 267144 packets with 50306102 frames
19:22:00.590: pulse-input: Stopped recording from 'alsa_output.usb-OROW_OROW_S203_20180508-00.iec958-stereo.monitor'
19:22:00.590: pulse-input: Got 225426 packets with 43427486 frames
19:22:00.609: All scene data cleared
19:22:00.609: ------------------------------------------------
19:22:00.698: [Scripting] Total detached callbacks: 0
19:22:00.698: Freeing OBS context data
19:22:00.742: == Profiler Results =============================
19:22:00.743: run_program_init: 466.768 ms
19:22:00.743:  ┣OBSApp::AppInit: 7.801 ms
19:22:00.743:  ┃ ┗OBSApp::InitLocale: 0.575 ms
19:22:00.743:  ┗OBSApp::OBSInit: 394.112 ms
19:22:00.743:    ┣obs_startup: 17.317 ms
19:22:00.743:    ┗OBSBasic::OBSInit: 335.763 ms
19:22:00.743:      ┣OBSBasic::InitBasicConfig: 0.313 ms
19:22:00.743:      ┣OBSBasic::ResetAudio: 0.197 ms
19:22:00.743:      ┣OBSBasic::ResetVideo: 140.502 ms
19:22:00.743:      ┣OBSBasic::InitOBSCallbacks: 0.002 ms
19:22:00.743:      ┣OBSBasic::InitHotkeys: 0.021 ms
19:22:00.743:      ┣obs_load_all_modules: 97.283 ms
19:22:00.743:      ┃ ┣obs_init_module(decklink-captions.so): 0.047 ms
19:22:00.743:      ┃ ┣obs_init_module(decklink-ouput-ui.so): 0.293 ms
19:22:00.743:      ┃ ┣obs_init_module(frontend-tools.so): 56.958 ms
19:22:00.743:      ┃ ┣obs_init_module(image-source.so): 0.003 ms
19:22:00.743:      ┃ ┣obs_init_module(linux-alsa.so): 0.001 ms
19:22:00.743:      ┃ ┣obs_init_module(linux-capture.so): 0.148 ms
19:22:00.743:      ┃ ┣obs_init_module(linux-decklink.so): 0.069 ms
19:22:00.743:      ┃ ┣obs_init_module(linux-jack.so): 0 ms
19:22:00.743:      ┃ ┣obs_init_module(linux-pulseaudio.so): 0.001 ms
19:22:00.743:      ┃ ┣obs_init_module(linux-v4l2.so): 2.576 ms
19:22:00.743:      ┃ ┣obs_init_module(obs-ffmpeg.so): 4.758 ms
19:22:00.743:      ┃ ┃ ┗nvenc_check: 4.56 ms
19:22:00.743:      ┃ ┣obs_init_module(obs-filters.so): 0.05 ms
19:22:00.743:      ┃ ┣obs_init_module(obs-libfdk.so): 0.001 ms
19:22:00.743:      ┃ ┣obs_init_module(obs-outputs.so): 0.001 ms
19:22:00.743:      ┃ ┣obs_init_module(obs-transitions.so): 0.007 ms
19:22:00.743:      ┃ ┣obs_init_module(obs-x264.so): 0.001 ms
19:22:00.743:      ┃ ┣obs_init_module(rtmp-services.so): 0.178 ms
19:22:00.743:      ┃ ┗obs_init_module(text-freetype2.so): 0.058 ms
19:22:00.743:      ┣OBSBasic::ResetOutputs: 0.11 ms
19:22:00.743:      ┣OBSBasic::CreateHotkeys: 0.043 ms
19:22:00.743:      ┣OBSBasic::InitService: 1.795 ms
19:22:00.743:      ┣OBSBasic::InitPrimitives: 0.263 ms
19:22:00.743:      ┗OBSBasic::Load: 70.145 ms
19:22:00.743: obs_hotkey_thread(25 ms): min=0.035 ms, median=0.254 ms, max=107.682 ms, 99th percentile=10.388 ms, 99.8321% below 25 ms
19:22:00.743: audio_thread(Audio): min=0 ms, median=0.177 ms, max=8.531 ms, 99th percentile=0.66 ms
19:22:00.743:  ┗receive_audio: min=0.001 ms, median=0.241 ms, max=8.363 ms, 99th percentile=0.557 ms, 0.609463 calls per parent call
19:22:00.743:    ┣buffer_audio: min=0 ms, median=0.001 ms, max=0.05 ms, 99th percentile=0.003 ms
19:22:00.743:    ┗do_encode: min=0.037 ms, median=0.239 ms, max=8.358 ms, 99th percentile=0.555 ms
19:22:00.743:      ┣encode(simple_aac_recording): min=0.036 ms, median=0.221 ms, max=1.623 ms, 99th percentile=0.404 ms, 0.653856 calls per parent call
19:22:00.743:      ┣send_packet: min=0 ms, median=0.008 ms, max=8.156 ms, 99th percentile=0.252 ms
19:22:00.743:      ┗encode(simple_aac_recording): min=0.042 ms, median=0.241 ms, max=0.635 ms, 99th percentile=0.395 ms, 0.346144 calls per parent call
19:22:00.743: obs_graphics_thread(33.3333 ms): min=0.139 ms, median=2.717 ms, max=57.662 ms, 99th percentile=3.25 ms, 99.8107% below 33.333 ms
19:22:00.743:  ┣tick_sources: min=0.001 ms, median=0.01 ms, max=0.024 ms, 99th percentile=0.013 ms
19:22:00.743:  ┣output_frame: min=0.059 ms, median=0.699 ms, max=17.08 ms, 99th percentile=0.849 ms
19:22:00.743:  ┃ ┗gs_context(video->graphics): min=0.059 ms, median=0.697 ms, max=17.08 ms, 99th percentile=0.848 ms
19:22:00.743:  ┃   ┣render_video: min=0.018 ms, median=0.13 ms, max=2.927 ms, 99th percentile=0.174 ms
19:22:00.743:  ┃   ┃ ┗render_main_texture: min=0.014 ms, median=0.101 ms, max=2.91 ms, 99th percentile=0.133 ms
19:22:00.743:  ┃   ┗gs_flush: min=0.005 ms, median=0.03 ms, max=16.68 ms, 99th percentile=0.067 ms
19:22:00.743:  ┗render_displays: min=0.034 ms, median=1.429 ms, max=30.714 ms, 99th percentile=1.776 ms
19:22:00.743: obs_graphics_thread(16.6667 ms): min=0.23 ms, median=2.498 ms, max=113.93 ms, 99th percentile=21.38 ms, 87.7878% below 16.667 ms
19:22:00.743:  ┣tick_sources: min=0.002 ms, median=0.011 ms, max=112.091 ms, 99th percentile=17.885 ms
19:22:00.743:  ┣output_frame: min=0.057 ms, median=0.546 ms, max=10.342 ms, 99th percentile=0.889 ms
19:22:00.743:  ┃ ┗gs_context(video->graphics): min=0.057 ms, median=0.546 ms, max=10.342 ms, 99th percentile=0.888 ms
19:22:00.743:  ┃   ┣render_video: min=0.016 ms, median=0.123 ms, max=3.196 ms, 99th percentile=0.302 ms
19:22:00.743:  ┃   ┃ ┗render_main_texture: min=0.013 ms, median=0.096 ms, max=3.184 ms, 99th percentile=0.27 ms
19:22:00.743:  ┃   ┗gs_flush: min=0.005 ms, median=0.025 ms, max=2.663 ms, 99th percentile=0.066 ms
19:22:00.743:  ┗render_displays: min=0.132 ms, median=1.137 ms, max=41.118 ms, 99th percentile=2.919 ms
19:22:00.743: OBSBasic::ResetVideo: min=46.602 ms, median=0 ms, max=82.506 ms, 99th percentile=82.506 ms
19:22:00.743: OBSBasic::ResetOutputs: min=0.048 ms, median=0.059 ms, max=0.578 ms, 99th percentile=0.578 ms
19:22:00.743: obs_graphics_thread(16.6667 ms): min=0.149 ms, median=9.048 ms, max=152.209 ms, 99th percentile=25.357 ms, 93.1328% below 16.667 ms
19:22:00.743:  ┣tick_sources: min=0.001 ms, median=8.313 ms, max=131.024 ms, 99th percentile=19.978 ms
19:22:00.743:  ┣output_frame: min=0.065 ms, median=0.262 ms, max=49.891 ms, 99th percentile=3.119 ms
19:22:00.743:  ┃ ┣gs_context(video->graphics): min=0.065 ms, median=0.255 ms, max=48.785 ms, 99th percentile=1.133 ms
19:22:00.743:  ┃ ┃ ┣render_video: min=0.024 ms, median=0.125 ms, max=16.782 ms, 99th percentile=0.597 ms
19:22:00.743:  ┃ ┃ ┃ ┣render_main_texture: min=0.019 ms, median=0.064 ms, max=0.788 ms, 99th percentile=0.29 ms
19:22:00.743:  ┃ ┃ ┃ ┣render_convert_texture: min=0.028 ms, median=0.037 ms, max=6.735 ms, 99th percentile=0.182 ms, 0.789897 calls per parent call
19:22:00.743:  ┃ ┃ ┃ ┗stage_output_texture: min=0.014 ms, median=0.018 ms, max=16.592 ms, 99th percentile=0.089 ms, 0.789897 calls per parent call
19:22:00.743:  ┃ ┃ ┣gs_flush: min=0.003 ms, median=0.005 ms, max=16.338 ms, 99th percentile=0.03 ms
19:22:00.743:  ┃ ┃ ┗download_frame: min=0 ms, median=0.001 ms, max=0.059 ms, 99th percentile=0.006 ms, 0.789897 calls per parent call
19:22:00.743:  ┃ ┗output_video_data: min=0 ms, median=0 ms, max=7.14 ms, 99th percentile=2.644 ms, 0.789834 calls per parent call
19:22:00.743:  ┗render_displays: min=0.033 ms, median=0.281 ms, max=69.601 ms, 99th percentile=1.805 ms
19:22:00.743: video_thread(video): min=0 ms, median=23.423 ms, max=5039.24 ms, 99th percentile=3307.98 ms
19:22:00.743:  ┗receive_video: min=2.678 ms, median=16.63 ms, max=47.446 ms, 99th percentile=25.485 ms, 10.895 calls per parent call
19:22:00.743:    ┗do_encode: min=2.677 ms, median=16.629 ms, max=47.446 ms, 99th percentile=25.485 ms
19:22:00.743:      ┣encode(simple_h264_recording): min=2.677 ms, median=16.604 ms, max=44.576 ms, 99th percentile=21.199 ms, 0.656983 calls per parent call
19:22:00.743:      ┣send_packet: min=0.001 ms, median=0.005 ms, max=3.773 ms, 99th percentile=0.1 ms
19:22:00.743:      ┗encode(simple_h264_recording): min=3.056 ms, median=16.645 ms, max=47.432 ms, 99th percentile=30.658 ms, 0.343017 calls per parent call
19:22:00.743: =================================================
19:22:00.743: == Profiler Time Between Calls ==================
19:22:00.743: obs_hotkey_thread(25 ms): min=25.057 ms, median=25.337 ms, max=136.69 ms, 64.8803% within ±2% of 25 ms (0% lower, 35.1197% higher)
19:22:00.743: obs_graphics_thread(33.3333 ms): min=9.039 ms, median=33.333 ms, max=57.666 ms, 99.6212% within ±2% of 33.333 ms (0.189394% lower, 0.189394% higher)
19:22:00.743: obs_graphics_thread(16.6667 ms): min=6.802 ms, median=16.667 ms, max=113.933 ms, 78.9665% within ±2% of 16.667 ms (9.47806% lower, 11.5554% higher)
19:22:00.743: obs_graphics_thread(16.6667 ms): min=7.056 ms, median=16.667 ms, max=152.218 ms, 87.1479% within ±2% of 16.667 ms (6.21011% lower, 6.64195% higher)
19:22:00.743: =================================================
19:22:00.811: Number of memory leaks: 1
