19:40:31.617: CPU Name: Intel(R) Core(TM) i9-10900K CPU @ 3.70GHz
19:40:31.617: CPU Speed: 3700.000MHz
19:40:31.618: Physical Cores: 10, Logical Cores: 20
19:40:31.618: Physical Memory: 64178MB Total, 54049MB Free
19:40:31.618: Kernel Version: Linux 5.18.14-arch1-1
19:40:31.618: Distribution: "Arch Linux" Unknown
19:40:31.618: Session Type: x11
19:40:31.618: Window System: X11.0, Vendor: The X.Org Foundation, Version: 1.21.1
19:40:31.618: Qt Version: 5.15.5 (runtime), 5.15.5 (compiled)
19:40:31.618: Portable mode: false
19:40:31.660: OBS 27.2.4-2 (linux)
19:40:31.660: ---------------------------------
19:40:31.660: ---------------------------------
19:40:31.660: audio settings reset:
19:40:31.660: 	samples per sec: 48000
19:40:31.660: 	speakers:        2
19:40:31.661: ---------------------------------
19:40:31.661: Initializing OpenGL...
19:40:31.764: Loading up OpenGL on adapter NVIDIA Corporation NVIDIA GeForce RTX 3090/PCIe/SSE2
19:40:31.764: OpenGL loaded successfully, version 3.3.0 NVIDIA 515.57, shading language 3.30 NVIDIA via Cg compiler
19:40:31.769: ---------------------------------
19:40:31.769: video settings reset:
19:40:31.769: 	base resolution:   3840x2160
19:40:31.769: 	output resolution: 3840x2160
19:40:31.769: 	downscale filter:  Bicubic
19:40:31.769: 	fps:               60/1
19:40:31.769: 	format:            NV12
19:40:31.769: 	YUV mode:          709/Partial
19:40:31.769: NV12 texture support not available
19:40:31.770: Audio monitoring device:
19:40:31.770: 	name: Default
19:40:31.770: 	id: default
19:40:31.770: ---------------------------------
19:40:31.771: Failed to load 'en-US' text for module: 'decklink-captions.so'
19:40:31.772: Failed to load 'en-US' text for module: 'decklink-ouput-ui.so'
19:40:31.812: A DeckLink iterator could not be created.  The DeckLink drivers may not be installed
19:40:31.812: No blackmagic support
19:40:31.817: v4l2loopback not installed, virtual camera disabled
19:40:31.820: NVENC supported
19:40:31.820: FFMPEG VAAPI supported
19:40:31.827: os_dlopen(/usr//lib/obs-plugins/sndio.so->/usr//lib/obs-plugins/sndio.so): libsndio.so.7: cannot open shared object file: No such file or directory
19:40:31.827: 
19:40:31.827: Module '/usr//lib/obs-plugins/sndio.so' not loaded
19:40:31.827: ---------------------------------
19:40:31.827:   Loaded Modules:
19:40:31.827:     text-freetype2.so
19:40:31.827:     rtmp-services.so
19:40:31.827:     obs-x264.so
19:40:31.827:     obs-transitions.so
19:40:31.827:     obs-outputs.so
19:40:31.827:     obs-libfdk.so
19:40:31.827:     obs-filters.so
19:40:31.827:     obs-ffmpeg.so
19:40:31.827:     linux-v4l2.so
19:40:31.827:     linux-pulseaudio.so
19:40:31.827:     linux-jack.so
19:40:31.827:     linux-decklink.so
19:40:31.827:     linux-capture.so
19:40:31.827:     linux-alsa.so
19:40:31.827:     image-source.so
19:40:31.828:     frontend-tools.so
19:40:31.828:     decklink-ouput-ui.so
19:40:31.828:     decklink-captions.so
19:40:31.828: ---------------------------------
19:40:31.828: ==== Startup complete ===============================================
19:40:31.851: All scene data cleared
19:40:31.851: ------------------------------------------------
19:40:31.857: pulse-input: Server name: 'pulseaudio 16.1'
19:40:31.858: pulse-input: Audio format: s16le, 48000 Hz, 2 channels
19:40:31.858: pulse-input: Started recording from 'alsa_output.usb-OROW_OROW_S203_20180508-00.iec958-stereo.monitor'
19:40:31.858: [Loaded global audio device]: 'Desktop Audio'
19:40:31.859: xshm-input: Geometry 3840x2160 @ 0,0
19:40:31.862: pulse-input: Server name: 'pulseaudio 16.1'
19:40:31.863: pulse-input: Audio format: s16le, 48000 Hz, 2 channels
19:40:31.863: pulse-input: Started recording from 'alsa_output.usb-OROW_OROW_S203_20180508-00.iec958-stereo.monitor'
19:40:31.864: Switched to scene 'Scene'
19:40:31.864: ------------------------------------------------
19:40:31.864: Loaded scenes:
19:40:31.864: - scene 'Scene':
19:40:31.864:     - source: 'Audio Output Capture (PulseAudio)' (pulse_output_capture)
19:40:31.864:     - source: 'Screen Capture (XSHM)' (xshm_input)
19:40:31.865: ------------------------------------------------
19:40:32.414: adding 21 milliseconds of audio buffering, total audio buffering is now 21 milliseconds (source: Audio Output Capture (PulseAudio))
19:40:32.414: 
19:44:43.441: xshm-input: Geometry 3840x2160 @ 0,0
19:44:51.241: xshm-input: Geometry 3840x2160 @ 0,0
19:44:58.949: xshm-input: Geometry 3840x2160 @ 0,0
19:45:37.526: ==== Shutting down ==================================================
19:45:37.544: pulse-input: Stopped recording from 'alsa_output.usb-OROW_OROW_S203_20180508-00.iec958-stereo.monitor'
19:45:37.544: pulse-input: Got 60477 packets with 14584872 frames
19:45:37.544: pulse-input: Stopped recording from 'alsa_output.usb-OROW_OROW_S203_20180508-00.iec958-stereo.monitor'
19:45:37.544: pulse-input: Got 60783 packets with 14671296 frames
19:45:37.562: All scene data cleared
19:45:37.562: ------------------------------------------------
19:45:37.650: [Scripting] Total detached callbacks: 0
19:45:37.650: Freeing OBS context data
19:45:37.685: == Profiler Results =============================
19:45:37.685: run_program_init: 368.917 ms
19:45:37.685:  ┣OBSApp::AppInit: 3.513 ms
19:45:37.685:  ┃ ┗OBSApp::InitLocale: 0.549 ms
19:45:37.685:  ┗OBSApp::OBSInit: 297.453 ms
19:45:37.685:    ┣obs_startup: 18.089 ms
19:45:37.685:    ┗OBSBasic::OBSInit: 237.5 ms
19:45:37.685:      ┣OBSBasic::InitBasicConfig: 0.064 ms
19:45:37.686:      ┣OBSBasic::ResetAudio: 0.191 ms
19:45:37.686:      ┣OBSBasic::ResetVideo: 109.141 ms
19:45:37.686:      ┣OBSBasic::InitOBSCallbacks: 0.003 ms
19:45:37.686:      ┣OBSBasic::InitHotkeys: 0.022 ms
19:45:37.686:      ┣obs_load_all_modules: 57.759 ms
19:45:37.686:      ┃ ┣obs_init_module(decklink-captions.so): 0.042 ms
19:45:37.686:      ┃ ┣obs_init_module(decklink-ouput-ui.so): 0.291 ms
19:45:37.686:      ┃ ┣obs_init_module(frontend-tools.so): 36.808 ms
19:45:37.686:      ┃ ┣obs_init_module(image-source.so): 0.003 ms
19:45:37.686:      ┃ ┣obs_init_module(linux-alsa.so): 0.001 ms
19:45:37.686:      ┃ ┣obs_init_module(linux-capture.so): 0.149 ms
19:45:37.686:      ┃ ┣obs_init_module(linux-decklink.so): 0.066 ms
19:45:37.686:      ┃ ┣obs_init_module(linux-jack.so): 0 ms
19:45:37.686:      ┃ ┣obs_init_module(linux-pulseaudio.so): 0 ms
19:45:37.686:      ┃ ┣obs_init_module(linux-v4l2.so): 2.65 ms
19:45:37.686:      ┃ ┣obs_init_module(obs-ffmpeg.so): 0.3 ms
19:45:37.686:      ┃ ┃ ┗nvenc_check: 0.223 ms
19:45:37.686:      ┃ ┣obs_init_module(obs-filters.so): 0.009 ms
19:45:37.686:      ┃ ┣obs_init_module(obs-libfdk.so): 0 ms
19:45:37.686:      ┃ ┣obs_init_module(obs-outputs.so): 0 ms
19:45:37.686:      ┃ ┣obs_init_module(obs-transitions.so): 0.003 ms
19:45:37.686:      ┃ ┣obs_init_module(obs-x264.so): 0 ms
19:45:37.686:      ┃ ┣obs_init_module(rtmp-services.so): 3.756 ms
19:45:37.686:      ┃ ┗obs_init_module(text-freetype2.so): 0.004 ms
19:45:37.686:      ┣OBSBasic::ResetOutputs: 0.068 ms
19:45:37.686:      ┣OBSBasic::CreateHotkeys: 0.025 ms
19:45:37.686:      ┣OBSBasic::InitService: 0.728 ms
19:45:37.686:      ┣OBSBasic::InitPrimitives: 0.161 ms
19:45:37.686:      ┗OBSBasic::Load: 37.576 ms
19:45:37.686: obs_hotkey_thread(25 ms): min=0.038 ms, median=0.736 ms, max=70.655 ms, 99th percentile=10.612 ms, 99.9728% below 25 ms
19:45:37.686: audio_thread(Audio): min=0 ms, median=0.136 ms, max=14.661 ms, 99th percentile=0.304 ms
19:45:37.686: obs_graphics_thread(16.6667 ms): min=0.125 ms, median=13.204 ms, max=80.533 ms, 99th percentile=21.788 ms, 62.9374% below 16.667 ms
19:45:37.686:  ┣tick_sources: min=0 ms, median=11.566 ms, max=79.797 ms, 99th percentile=18.49 ms
19:45:37.686:  ┣output_frame: min=0.055 ms, median=0.462 ms, max=15.939 ms, 99th percentile=0.927 ms
19:45:37.686:  ┃ ┗gs_context(video->graphics): min=0.055 ms, median=0.462 ms, max=15.939 ms, 99th percentile=0.925 ms
19:45:37.686:  ┃   ┣render_video: min=0.015 ms, median=0.156 ms, max=15.877 ms, 99th percentile=0.334 ms
19:45:37.686:  ┃   ┃ ┗render_main_texture: min=0.012 ms, median=0.14 ms, max=15.87 ms, 99th percentile=0.299 ms
19:45:37.686:  ┃   ┗gs_flush: min=0.003 ms, median=0.016 ms, max=2.912 ms, 99th percentile=0.067 ms
19:45:37.686:  ┗render_displays: min=0.033 ms, median=0.763 ms, max=46.408 ms, 99th percentile=2.964 ms
19:45:37.686: =================================================
19:45:37.686: == Profiler Time Between Calls ==================
19:45:37.686: obs_hotkey_thread(25 ms): min=25.068 ms, median=25.855 ms, max=95.717 ms, 29.1663% within ±2% of 25 ms (0% lower, 70.8337% higher)
19:45:37.686: obs_graphics_thread(16.6667 ms): min=4.307 ms, median=16.678 ms, max=80.544 ms, 37.7205% within ±2% of 16.667 ms (26.5763% lower, 35.7033% higher)
19:45:37.686: =================================================
19:45:37.719: Number of memory leaks: 0
