<svg xmlns="http://www.w3.org/2000/svg" viewBox="0 0 100 100">
	<g stroke-width="8" fill="rgba(255,255,255,.25)" stroke="#75AADF" stroke-linecap="round" stroke-linejoin="round">
		<path d="M7,25 L65,25 L93,50 L65,75 L7,75 z"/>
	</g>
</svg>
